{"success":true,"msg":"操作成功","data":{"middle":{"list":[{"imgUrl":null,"title_no_tag":"2021年9月14日外交部发言人赵立坚主持例行记者会","displayTemplateId":8,"documentId":"9660596","time":"2021-09-14 18:38:00","source":"","title":"2021年9月14日外交部发言人赵立坚主持例行记者会","url":"http://www.mfa.gov.cn/web/fyrbt_673021/jzhsl_673025/202109/t20210914_9604842.shtml","content":"澎湃新闻记者：8月29日，美军在<em>阿富汗</em>喀布尔机场恐袭事件发生后，在喀布尔实施了一次无人机打击，声称炸死两名恐怖分子。"},{"imgUrl":null,"title_no_tag":"王毅同意大利外长迪马约通电话","displayTemplateId":7,"documentId":"9136774","time":"2021-08-20 23:03:00","source":"","title":"王毅同意大利外长迪马约通电话","url":"https://www.mfa.gov.cn/web/wjbzhd/202108/t20210820_9137780.shtml","content":"双方重点就<em>阿富汗</em>局势交换了意见。\n　　王毅表示，<em>阿富汗</em>历史已翻开新的一页，对于过去发生的事情，历史终将得出公正结论。"},{"imgUrl":null,"title_no_tag":"外交部亚洲司司长刘劲松会见俄罗斯驻华使馆副馆长热洛霍夫采夫","displayTemplateId":6,"documentId":"9605718","time":"2021-09-10 22:50:00","source":"","title":"外交部亚洲司司长刘劲松会见俄罗斯驻华使馆副馆长热洛霍夫采夫","url":"http://www.fmprc.gov.cn/wjbxw_673019/202109/t20210910_9605718.shtml","content":"　　2021年9月10日，外交部亚洲司司长刘劲松会见俄罗斯驻华使馆副馆长、公使衔参赞热洛霍夫采夫，就<em>阿富汗</em>问题深入交换了意见。"},{"imgUrl":null,"title_no_tag":"习近平同俄罗斯总统普京通电话","displayTemplateId":6,"documentId":"9136997","time":"2021-08-25 20:31:00","source":"","title":"习近平同俄罗斯总统普京通电话","url":"https://www.mfa.gov.cn/web/zyxw/202108/t20210825_9136997.shtml","content":"双方就<em>阿富汗</em>局势深入交换意见。\n　　习近平强调，中方尊重<em>阿富汗</em>的主权、独立、领土完整，奉行不干涉阿内政的政策，一直为政治解决<em>阿富汗</em>问题发挥建设性作用。"},{"imgUrl":null,"title_no_tag":"2021年9月2日外交部发言人汪文斌主持例行记者会","displayTemplateId":8,"documentId":"9170323","time":"2021-09-02 18:25:00","source":"","title":"2021年9月2日外交部发言人汪文斌主持例行记者会","url":"http://www.mfa.gov.cn/web/fyrbt_673021/jzhsl_673025/202109/t20210902_9171333.shtml","content":"汪文斌：<em>阿富汗</em>问题的妥善解决离不开国际社会的共同参与和支持。涉<em>阿富汗</em>多边机制较多，可以各有特色、突出重点、相辅相成。"},{"imgUrl":null,"title_no_tag":"习近平同葡萄牙总统德索萨通电话","displayTemplateId":14,"documentId":"9183568","time":"2021-08-27 21:26:00","source":"","title":"习近平同葡萄牙总统德索萨通电话","url":"https://www.mfa.gov.cn/web/ziliao_674904/zt_674979/dnzt_674981/qtzt/kjgzbdfyyq_699171/202108/t20210827_9184578.shtml","content":"中方在<em>阿富汗</em>等地区热点问题上具有重要影响，葡方支持中方发挥更大作用。"},{"imgUrl":null,"title_no_tag":"王毅同巴基斯坦外长库雷希通电话","displayTemplateId":7,"documentId":"9136765","time":"2021-08-18 23:06:00","source":"","title":"王毅同巴基斯坦外长库雷希通电话","url":"https://www.mfa.gov.cn/web/wjbzhd/202108/t20210818_9137771.shtml","content":"王毅表示，这几天，<em>阿富汗</em>局势发生剧变，成为全球关注焦点。事实证明，所谓“民主改造”不符合实际，反而自食恶果，其中的教训值得记取。"},{"imgUrl":null,"title_no_tag":"外交部亚洲司司长刘劲松同德国外交部亚太司司长&lt;br&gt;司佩兰举行亚太事务视频磋商","displayTemplateId":6,"documentId":"9138439","time":"2021-09-01 19:38:00","source":"","title":"外交部亚洲司司长刘劲松同德国外交部亚太司司长&lt;br&gt;司佩兰举行亚太事务视频磋商","url":"http://www.fmprc.gov.cn/wjbxw_673019/202109/t20210901_9138439.shtml","content":"　　2021年9月1日，外交部亚洲司司长刘劲松应约同德国外交部亚太司司长司佩兰女士举行亚太事务视频磋商，就亚洲地区形势、各自地区和国别政策、区域合作、“一带一路”与亚欧互联互通、<em>阿富汗</em>局势等共同关心的问题深入交换了意见"},{"imgUrl":null,"title_no_tag":"2021年8月16日外交部发言人华春莹主持例行记者会","displayTemplateId":8,"documentId":"9170310","time":"2021-08-16 20:40:00","source":"","title":"2021年8月16日外交部发言人华春莹主持例行记者会","url":"http://www.mfa.gov.cn/web/fyrbt_673021/jzhsl_673025/202108/t20210816_9171320.shtml","content":"　　总台央视记者：我们注意到现在<em>阿富汗</em>局势发展很快，中方如何评价当前<em>阿富汗</em>局势？\n　　华春莹：<em>阿富汗</em>局势已发生重大变化，我们尊重<em>阿富汗</em>人民的意愿和选择。"},{"imgUrl":null,"title_no_tag":"2021年8月19日外交部发言人华春莹主持例行记者会","displayTemplateId":8,"documentId":"9170313","time":"2021-08-19 16:59:00","source":"","title":"2021年8月19日外交部发言人华春莹主持例行记者会","url":"http://www.mfa.gov.cn/web/fyrbt_673021/jzhsl_673025/202108/t20210819_9171323.shtml","content":"彭博社记者：<em>阿富汗</em>塔利班进入喀布尔后，中方是否与其保持联系？中方在何种条件下会承认阿塔政府为<em>阿富汗</em>合法政府？是否会特别要求其在保障妇女权益方面比20年前执政时做得更好？\n　　"}],"box":[],"listAndBox":[{"type":"DATA","data":{"imgUrl":null,"title_no_tag":"2021年9月14日外交部发言人赵立坚主持例行记者会","displayTemplateId":8,"documentId":"9660596","time":"2021-09-14 18:38:00","source":"","title":"2021年9月14日外交部发言人赵立坚主持例行记者会","url":"http://www.mfa.gov.cn/web/fyrbt_673021/jzhsl_673025/202109/t20210914_9604842.shtml","content":"澎湃新闻记者：8月29日，美军在<em>阿富汗</em>喀布尔机场恐袭事件发生后，在喀布尔实施了一次无人机打击，声称炸死两名恐怖分子。"}},{"type":"DATA","data":{"imgUrl":null,"title_no_tag":"王毅同意大利外长迪马约通电话","displayTemplateId":7,"documentId":"9136774","time":"2021-08-20 23:03:00","source":"","title":"王毅同意大利外长迪马约通电话","url":"https://www.mfa.gov.cn/web/wjbzhd/202108/t20210820_9137780.shtml","content":"双方重点就<em>阿富汗</em>局势交换了意见。\n　　王毅表示，<em>阿富汗</em>历史已翻开新的一页，对于过去发生的事情，历史终将得出公正结论。"}},{"type":"DATA","data":{"imgUrl":null,"title_no_tag":"外交部亚洲司司长刘劲松会见俄罗斯驻华使馆副馆长热洛霍夫采夫","displayTemplateId":6,"documentId":"9605718","time":"2021-09-10 22:50:00","source":"","title":"外交部亚洲司司长刘劲松会见俄罗斯驻华使馆副馆长热洛霍夫采夫","url":"http://www.fmprc.gov.cn/wjbxw_673019/202109/t20210910_9605718.shtml","content":"　　2021年9月10日，外交部亚洲司司长刘劲松会见俄罗斯驻华使馆副馆长、公使衔参赞热洛霍夫采夫，就<em>阿富汗</em>问题深入交换了意见。"}},{"type":"DATA","data":{"imgUrl":null,"title_no_tag":"习近平同俄罗斯总统普京通电话","displayTemplateId":6,"documentId":"9136997","time":"2021-08-25 20:31:00","source":"","title":"习近平同俄罗斯总统普京通电话","url":"https://www.mfa.gov.cn/web/zyxw/202108/t20210825_9136997.shtml","content":"双方就<em>阿富汗</em>局势深入交换意见。\n　　习近平强调，中方尊重<em>阿富汗</em>的主权、独立、领土完整，奉行不干涉阿内政的政策，一直为政治解决<em>阿富汗</em>问题发挥建设性作用。"}},{"type":"DATA","data":{"imgUrl":null,"title_no_tag":"2021年9月2日外交部发言人汪文斌主持例行记者会","displayTemplateId":8,"documentId":"9170323","time":"2021-09-02 18:25:00","source":"","title":"2021年9月2日外交部发言人汪文斌主持例行记者会","url":"http://www.mfa.gov.cn/web/fyrbt_673021/jzhsl_673025/202109/t20210902_9171333.shtml","content":"汪文斌：<em>阿富汗</em>问题的妥善解决离不开国际社会的共同参与和支持。涉<em>阿富汗</em>多边机制较多，可以各有特色、突出重点、相辅相成。"}},{"type":"DATA","data":{"imgUrl":null,"title_no_tag":"习近平同葡萄牙总统德索萨通电话","displayTemplateId":14,"documentId":"9183568","time":"2021-08-27 21:26:00","source":"","title":"习近平同葡萄牙总统德索萨通电话","url":"https://www.mfa.gov.cn/web/ziliao_674904/zt_674979/dnzt_674981/qtzt/kjgzbdfyyq_699171/202108/t20210827_9184578.shtml","content":"中方在<em>阿富汗</em>等地区热点问题上具有重要影响，葡方支持中方发挥更大作用。"}},{"type":"DATA","data":{"imgUrl":null,"title_no_tag":"王毅同巴基斯坦外长库雷希通电话","displayTemplateId":7,"documentId":"9136765","time":"2021-08-18 23:06:00","source":"","title":"王毅同巴基斯坦外长库雷希通电话","url":"https://www.mfa.gov.cn/web/wjbzhd/202108/t20210818_9137771.shtml","content":"王毅表示，这几天，<em>阿富汗</em>局势发生剧变，成为全球关注焦点。事实证明，所谓“民主改造”不符合实际，反而自食恶果，其中的教训值得记取。"}},{"type":"DATA","data":{"imgUrl":null,"title_no_tag":"外交部亚洲司司长刘劲松同德国外交部亚太司司长&lt;br&gt;司佩兰举行亚太事务视频磋商","displayTemplateId":6,"documentId":"9138439","time":"2021-09-01 19:38:00","source":"","title":"外交部亚洲司司长刘劲松同德国外交部亚太司司长&lt;br&gt;司佩兰举行亚太事务视频磋商","url":"http://www.fmprc.gov.cn/wjbxw_673019/202109/t20210901_9138439.shtml","content":"　　2021年9月1日，外交部亚洲司司长刘劲松应约同德国外交部亚太司司长司佩兰女士举行亚太事务视频磋商，就亚洲地区形势、各自地区和国别政策、区域合作、“一带一路”与亚欧互联互通、<em>阿富汗</em>局势等共同关心的问题深入交换了意见"}},{"type":"DATA","data":{"imgUrl":null,"title_no_tag":"2021年8月16日外交部发言人华春莹主持例行记者会","displayTemplateId":8,"documentId":"9170310","time":"2021-08-16 20:40:00","source":"","title":"2021年8月16日外交部发言人华春莹主持例行记者会","url":"http://www.mfa.gov.cn/web/fyrbt_673021/jzhsl_673025/202108/t20210816_9171320.shtml","content":"　　总台央视记者：我们注意到现在<em>阿富汗</em>局势发展很快，中方如何评价当前<em>阿富汗</em>局势？\n　　华春莹：<em>阿富汗</em>局势已发生重大变化，我们尊重<em>阿富汗</em>人民的意愿和选择。"}},{"type":"DATA","data":{"imgUrl":null,"title_no_tag":"2021年8月19日外交部发言人华春莹主持例行记者会","displayTemplateId":8,"documentId":"9170313","time":"2021-08-19 16:59:00","source":"","title":"2021年8月19日外交部发言人华春莹主持例行记者会","url":"http://www.mfa.gov.cn/web/fyrbt_673021/jzhsl_673025/202108/t20210819_9171323.shtml","content":"彭博社记者：<em>阿富汗</em>塔利班进入喀布尔后，中方是否与其保持联系？中方在何种条件下会承认阿塔政府为<em>阿富汗</em>合法政府？是否会特别要求其在保障妇女权益方面比20年前执政时做得更好？\n　　"}}]},"left":null,"right":{"box":[]},"searchInfo":{"searchWord":null,"searchTerms":null,"hitWord":null,"wordId":null,"wordIndexName":null},"pager":{"pageNo":6,"pageSize":10,"pageCount":9,"total":88},"spendTime":0.035},"code":200}