{"success":true,"msg":"操作成功","data":{"middle":{"list":[{"imgUrl":null,"title_no_tag":"习近平同德国总理默克尔通电话","displayTemplateId":6,"documentId":"9604452","time":"2021-09-10 22:44:00","source":"","title":"习近平同德国总理默克尔通电话","url":"https://www.mfa.gov.cn/web/zyxw/202109/t20210910_9604452.shtml","content":"默克尔通报了对当前<em>阿富汗</em>局势的看法，表示希同中方在联合国等多边框架下加强沟通协调。"},{"imgUrl":null,"title_no_tag":"王毅应约同美国国务卿布林肯通电话","displayTemplateId":7,"documentId":"9136760","time":"2021-08-17 07:51:00","source":"","title":"王毅应约同美国国务卿布林肯通电话","url":"https://www.mfa.gov.cn/web/wjbzhd/202108/t20210817_9137766.shtml","content":"　　2021年8月16日，国务委员兼外长王毅应约同美国国务卿通电话，重点就<em>阿富汗</em>局势及中美关系交换了意见。\n　　布林肯感谢中方参与<em>阿富汗</em>问题多哈会晤，表示阿当前局势正进入一个关键阶段。"},{"imgUrl":null,"title_no_tag":"驻英国大使郑泽光会见英外交发展国务大臣亚当斯","displayTemplateId":10,"documentId":"9662374","time":"2021-09-09 00:02:00","source":"驻英国使馆","title":"驻英国大使郑泽光会见英外交发展国务大臣亚当斯","url":"https://www.mfa.gov.cn/web/zwbd_673032/wshd_673034/202109/t20210909_9606035.shtml","content":"双方就加强中英在经贸、文化、教育等领域以及气候变化、<em>阿富汗</em>等重要国际地区问题上的对话与合作深入交换了意见。\n　　郑泽光并就涉疆、涉港问题向亚当斯表达了中方关切。"},{"imgUrl":null,"title_no_tag":"2021年8月20日外交部发言人华春莹主持例行记者会","displayTemplateId":8,"documentId":"9170314","time":"2021-08-20 18:08:00","source":"","title":"2021年8月20日外交部发言人华春莹主持例行记者会","url":"http://www.mfa.gov.cn/web/fyrbt_673021/jzhsl_673025/202108/t20210820_9171324.shtml","content":"无论是东南亚的越南、老挝、柬埔寨，还是中东的伊拉克、叙利亚、利比亚，或是拉美、非洲，再到如今的<em>阿富汗</em>。美国在<em>阿富汗</em>的支出中，仅有2%，甚至不到2%用在真正能惠及<em>阿富汗</em>人民的基本基础设施或减贫服务。"},{"imgUrl":null,"title_no_tag":"驻苏丹大使马新民在《褐色大地报》发表署名文章《中国为全球团结抗疫树立典范》","displayTemplateId":9,"documentId":"9139463","time":"2021-08-31 19:27:00","source":"驻苏丹使馆","title":"驻苏丹大使马新民在《褐色大地报》发表署名文章《中国为全球团结抗疫树立典范》","url":"http://www.fmprc.gov.cn/dszlsjt_673036/202108/t20210831_9140470.shtml","content":"中国为实现疫苗在发展中国家的可及性和可负担性做出了贡献，率先向有需要的发展中国家提供疫苗，率先同发展中国家开展疫苗合作生产，推动疫苗全球公平合理分配，反对制造“免疫鸿沟”，对外提供的疫苗超过九成流向亚非拉国家，并率先进入<em>阿富汗</em>"},{"imgUrl":null,"title_no_tag":"新冠病毒溯源：相信科学调查，摒弃政治操弄","displayTemplateId":9,"documentId":"9139397","time":"2021-08-24 12:39:00","source":"驻斯里兰卡使馆","title":"新冠病毒溯源：相信科学调查，摒弃政治操弄","url":"http://www.fmprc.gov.cn/dszlsjt_673036/202108/t20210824_9140403.shtml","content":"事实将证明，美国的所谓新冠病毒溯源调查报告同其在<em>阿富汗</em>问题上的信誉一样，将被再次撕得粉碎。"},{"imgUrl":null,"title_no_tag":"2021年9月6日外交部发言人汪文斌主持例行记者会","displayTemplateId":8,"documentId":"9170325","time":"2021-09-06 19:00:00","source":"","title":"2021年9月6日外交部发言人汪文斌主持例行记者会","url":"http://www.mfa.gov.cn/web/fyrbt_673021/jzhsl_673025/202109/t20210906_9171335.shtml","content":"澎湃新闻记者：据报道，美白宫发言人普萨基日前称，没有国家比中俄更希望美留在<em>阿富汗</em>，因为这会牵制美资源。中方对此有何评论？\n　　"},{"imgUrl":null,"title_no_tag":"2021年8月31日外交部发言人汪文斌主持例行记者会","displayTemplateId":8,"documentId":"9170321","time":"2021-08-31 18:31:00","source":"","title":"2021年8月31日外交部发言人汪文斌主持例行记者会","url":"http://www.mfa.gov.cn/web/fyrbt_673021/jzhsl_673025/202108/t20210831_9171331.shtml","content":"<em>阿富汗</em>得以摆脱外国军事占领，<em>阿富汗</em>人民迎来国家和平与重建的新起点，<em>阿富汗</em>历史翻开新的一页。中方始终尊重<em>阿富汗</em>主权独立和领土完整，坚持不干涉<em>阿富汗</em>内政，奉行面向全体<em>阿富汗</em>人民的友好政策。\n　　"},{"imgUrl":null,"title_no_tag":"2021年9月3日外交部发言人汪文斌主持例行记者会","displayTemplateId":8,"documentId":"9170324","time":"2021-09-03 19:41:00","source":"","title":"2021年9月3日外交部发言人汪文斌主持例行记者会","url":"http://www.mfa.gov.cn/web/fyrbt_673021/jzhsl_673025/202109/t20210903_9171334.shtml","content":"第一个问题，据半岛电视台报道，塔利班与当地抵抗力量谈判失败后决定对<em>阿富汗</em>潘杰希尔省发起进攻，请问中方对此有何评论？这会对<em>阿富汗</em>局势带来什么影响？"},{"imgUrl":null,"title_no_tag":"病毒溯源不容政治操弄","displayTemplateId":9,"documentId":"9139491","time":"2021-09-01 17:19:00","source":"驻俄罗斯使馆","title":"病毒溯源不容政治操弄","url":"http://www.fmprc.gov.cn/dszlsjt_673036/202109/t20210901_9140497.shtml","content":"中国不是伊拉克，不是<em>阿富汗</em>，更不是叙利亚。中国政府有决心更有能力捍卫国家尊严、主权和安全。"}],"box":[],"listAndBox":[{"type":"DATA","data":{"imgUrl":null,"title_no_tag":"习近平同德国总理默克尔通电话","displayTemplateId":6,"documentId":"9604452","time":"2021-09-10 22:44:00","source":"","title":"习近平同德国总理默克尔通电话","url":"https://www.mfa.gov.cn/web/zyxw/202109/t20210910_9604452.shtml","content":"默克尔通报了对当前<em>阿富汗</em>局势的看法，表示希同中方在联合国等多边框架下加强沟通协调。"}},{"type":"DATA","data":{"imgUrl":null,"title_no_tag":"王毅应约同美国国务卿布林肯通电话","displayTemplateId":7,"documentId":"9136760","time":"2021-08-17 07:51:00","source":"","title":"王毅应约同美国国务卿布林肯通电话","url":"https://www.mfa.gov.cn/web/wjbzhd/202108/t20210817_9137766.shtml","content":"　　2021年8月16日，国务委员兼外长王毅应约同美国国务卿通电话，重点就<em>阿富汗</em>局势及中美关系交换了意见。\n　　布林肯感谢中方参与<em>阿富汗</em>问题多哈会晤，表示阿当前局势正进入一个关键阶段。"}},{"type":"DATA","data":{"imgUrl":null,"title_no_tag":"驻英国大使郑泽光会见英外交发展国务大臣亚当斯","displayTemplateId":10,"documentId":"9662374","time":"2021-09-09 00:02:00","source":"驻英国使馆","title":"驻英国大使郑泽光会见英外交发展国务大臣亚当斯","url":"https://www.mfa.gov.cn/web/zwbd_673032/wshd_673034/202109/t20210909_9606035.shtml","content":"双方就加强中英在经贸、文化、教育等领域以及气候变化、<em>阿富汗</em>等重要国际地区问题上的对话与合作深入交换了意见。\n　　郑泽光并就涉疆、涉港问题向亚当斯表达了中方关切。"}},{"type":"DATA","data":{"imgUrl":null,"title_no_tag":"2021年8月20日外交部发言人华春莹主持例行记者会","displayTemplateId":8,"documentId":"9170314","time":"2021-08-20 18:08:00","source":"","title":"2021年8月20日外交部发言人华春莹主持例行记者会","url":"http://www.mfa.gov.cn/web/fyrbt_673021/jzhsl_673025/202108/t20210820_9171324.shtml","content":"无论是东南亚的越南、老挝、柬埔寨，还是中东的伊拉克、叙利亚、利比亚，或是拉美、非洲，再到如今的<em>阿富汗</em>。美国在<em>阿富汗</em>的支出中，仅有2%，甚至不到2%用在真正能惠及<em>阿富汗</em>人民的基本基础设施或减贫服务。"}},{"type":"DATA","data":{"imgUrl":null,"title_no_tag":"驻苏丹大使马新民在《褐色大地报》发表署名文章《中国为全球团结抗疫树立典范》","displayTemplateId":9,"documentId":"9139463","time":"2021-08-31 19:27:00","source":"驻苏丹使馆","title":"驻苏丹大使马新民在《褐色大地报》发表署名文章《中国为全球团结抗疫树立典范》","url":"http://www.fmprc.gov.cn/dszlsjt_673036/202108/t20210831_9140470.shtml","content":"中国为实现疫苗在发展中国家的可及性和可负担性做出了贡献，率先向有需要的发展中国家提供疫苗，率先同发展中国家开展疫苗合作生产，推动疫苗全球公平合理分配，反对制造“免疫鸿沟”，对外提供的疫苗超过九成流向亚非拉国家，并率先进入<em>阿富汗</em>"}},{"type":"DATA","data":{"imgUrl":null,"title_no_tag":"新冠病毒溯源：相信科学调查，摒弃政治操弄","displayTemplateId":9,"documentId":"9139397","time":"2021-08-24 12:39:00","source":"驻斯里兰卡使馆","title":"新冠病毒溯源：相信科学调查，摒弃政治操弄","url":"http://www.fmprc.gov.cn/dszlsjt_673036/202108/t20210824_9140403.shtml","content":"事实将证明，美国的所谓新冠病毒溯源调查报告同其在<em>阿富汗</em>问题上的信誉一样，将被再次撕得粉碎。"}},{"type":"DATA","data":{"imgUrl":null,"title_no_tag":"2021年9月6日外交部发言人汪文斌主持例行记者会","displayTemplateId":8,"documentId":"9170325","time":"2021-09-06 19:00:00","source":"","title":"2021年9月6日外交部发言人汪文斌主持例行记者会","url":"http://www.mfa.gov.cn/web/fyrbt_673021/jzhsl_673025/202109/t20210906_9171335.shtml","content":"澎湃新闻记者：据报道，美白宫发言人普萨基日前称，没有国家比中俄更希望美留在<em>阿富汗</em>，因为这会牵制美资源。中方对此有何评论？\n　　"}},{"type":"DATA","data":{"imgUrl":null,"title_no_tag":"2021年8月31日外交部发言人汪文斌主持例行记者会","displayTemplateId":8,"documentId":"9170321","time":"2021-08-31 18:31:00","source":"","title":"2021年8月31日外交部发言人汪文斌主持例行记者会","url":"http://www.mfa.gov.cn/web/fyrbt_673021/jzhsl_673025/202108/t20210831_9171331.shtml","content":"<em>阿富汗</em>得以摆脱外国军事占领，<em>阿富汗</em>人民迎来国家和平与重建的新起点，<em>阿富汗</em>历史翻开新的一页。中方始终尊重<em>阿富汗</em>主权独立和领土完整，坚持不干涉<em>阿富汗</em>内政，奉行面向全体<em>阿富汗</em>人民的友好政策。\n　　"}},{"type":"DATA","data":{"imgUrl":null,"title_no_tag":"2021年9月3日外交部发言人汪文斌主持例行记者会","displayTemplateId":8,"documentId":"9170324","time":"2021-09-03 19:41:00","source":"","title":"2021年9月3日外交部发言人汪文斌主持例行记者会","url":"http://www.mfa.gov.cn/web/fyrbt_673021/jzhsl_673025/202109/t20210903_9171334.shtml","content":"第一个问题，据半岛电视台报道，塔利班与当地抵抗力量谈判失败后决定对<em>阿富汗</em>潘杰希尔省发起进攻，请问中方对此有何评论？这会对<em>阿富汗</em>局势带来什么影响？"}},{"type":"DATA","data":{"imgUrl":null,"title_no_tag":"病毒溯源不容政治操弄","displayTemplateId":9,"documentId":"9139491","time":"2021-09-01 17:19:00","source":"驻俄罗斯使馆","title":"病毒溯源不容政治操弄","url":"http://www.fmprc.gov.cn/dszlsjt_673036/202109/t20210901_9140497.shtml","content":"中国不是伊拉克，不是<em>阿富汗</em>，更不是叙利亚。中国政府有决心更有能力捍卫国家尊严、主权和安全。"}}]},"left":null,"right":{"box":[]},"searchInfo":{"searchWord":null,"searchTerms":null,"hitWord":null,"wordId":null,"wordIndexName":null},"pager":{"pageNo":7,"pageSize":10,"pageCount":9,"total":88},"spendTime":0.027},"code":200}