{"success":true,"msg":"操作成功","data":{"middle":{"list":[{"imgUrl":null,"title_no_tag":"2021年8月18日外交部发言人赵立坚主持例行记者会","displayTemplateId":8,"documentId":"9170312","time":"2021-08-18 18:11:00","source":"","title":"2021年8月18日外交部发言人赵立坚主持例行记者会","url":"http://www.mfa.gov.cn/web/fyrbt_673021/jzhsl_673025/202108/t20210818_9171322.shtml","content":"　　今日俄罗斯记者：中方是否并将在何种情况下参与<em>阿富汗</em>重建？\n　　赵立坚：近日<em>阿富汗</em>局势已经发生重大变化。<em>阿富汗</em>人民历经40多年战乱动荡，渴望和平，人心思定。"},{"imgUrl":null,"title_no_tag":"2021年8月23日外交部发言人汪文斌主持例行记者会","displayTemplateId":8,"documentId":"9170315","time":"2021-08-23 17:53:00","source":"","title":"2021年8月23日外交部发言人汪文斌主持例行记者会","url":"http://www.mfa.gov.cn/web/fyrbt_673021/jzhsl_673025/202108/t20210823_9171325.shtml","content":"　　总台央视记者：中方此前表示，仍有零星中国公民留在<em>阿富汗</em>，请问他们目前安全状况如何？\n　　汪文斌：中方高度关注在<em>阿富汗</em>的中国机构和人员安全。"},{"imgUrl":null,"title_no_tag":"2021年9月7日外交部发言人汪文斌主持例行记者会","displayTemplateId":8,"documentId":"9660591","time":"2021-09-07 18:32:00","source":"","title":"2021年9月7日外交部发言人汪文斌主持例行记者会","url":"http://www.mfa.gov.cn/web/fyrbt_673021/jzhsl_673025/202109/t20210907_9604837.shtml","content":"塔斯社记者：据印度《先锋报》报道，塔利班或将<em>阿富汗</em>巴格拉姆空军基地移交中国，将坎大哈基地移交巴基斯坦，用于开展行动。"},{"imgUrl":null,"title_no_tag":"习近平同塔吉克斯坦总统拉赫蒙通电话","displayTemplateId":6,"documentId":"9604443","time":"2021-09-07 20:18:00","source":"","title":"习近平同塔吉克斯坦总统拉赫蒙通电话","url":"https://www.mfa.gov.cn/web/zyxw/202109/t20210907_9604443.shtml","content":"双方还就<em>阿富汗</em>局势交换意见，同意继续深化反恐安全合作，共同维护地区安全稳定。\n　　"},{"imgUrl":null,"title_no_tag":"习近平同葡萄牙总统德索萨通电话","displayTemplateId":6,"documentId":"9136999","time":"2021-08-27 21:26:00","source":"","title":"习近平同葡萄牙总统德索萨通电话","url":"https://www.mfa.gov.cn/web/zyxw/202108/t20210827_9136999.shtml","content":"中方在<em>阿富汗</em>等地区热点问题上具有重要影响，葡方支持中方发挥更大作用。"},{"imgUrl":null,"title_no_tag":"驻东盟大使邓锡军在线出席2021年第二次东亚峰会大使级会议","displayTemplateId":10,"documentId":"9171353","time":"2021-08-24 10:36:00","source":"驻东盟使团","title":"驻东盟大使邓锡军在线出席2021年第二次东亚峰会大使级会议","url":"https://www.mfa.gov.cn/web/zwbd_673032/wshd_673034/202108/t20210824_9172363.shtml","content":"邓大使就缅甸、<em>阿富汗</em>、朝鲜半岛局势等地区热点问题阐述中方立场，坚决驳斥个别与会国家就南海、涉港、涉疆等问题对中方无理指责，强调涉港、涉疆问题是中国内政，不容干涉，中国和东盟国家正努力排除疫情干扰，积极推进"},{"imgUrl":null,"title_no_tag":"驻阿根廷大使邹肖力同阿国际关系理事会亚洲事务委员在线座谈","displayTemplateId":10,"documentId":"9172474","time":"2021-09-04 00:21:00","source":"驻阿根廷使馆","title":"驻阿根廷大使邹肖力同阿国际关系理事会亚洲事务委员在线座谈","url":"http://www.fmprc.gov.cn/zwbd_673032/gzhd_673042/202109/t20210904_9173484.shtml","content":"邹大使还就中澳关系和<em>阿富汗</em>局势等回答了提问。"},{"imgUrl":null,"title_no_tag":"驻南非大使陈晓东就新冠病毒溯源问题举行线上媒体吹风会","displayTemplateId":10,"documentId":"9172454","time":"2021-08-30 18:44:00","source":"驻南非使馆","title":"驻南非大使陈晓东就新冠病毒溯源问题举行线上媒体吹风会","url":"http://www.fmprc.gov.cn/zwbd_673032/gzhd_673042/202108/t20210830_9173464.shtml","content":"历时20年的<em>阿富汗</em>战争以美军仓皇撤离留下千疮百孔的烂摊子而结束，这一“始乱终弃”的行为再次证明，美国完全不可信、不可靠。"}],"box":[],"listAndBox":[{"type":"DATA","data":{"imgUrl":null,"title_no_tag":"2021年8月18日外交部发言人赵立坚主持例行记者会","displayTemplateId":8,"documentId":"9170312","time":"2021-08-18 18:11:00","source":"","title":"2021年8月18日外交部发言人赵立坚主持例行记者会","url":"http://www.mfa.gov.cn/web/fyrbt_673021/jzhsl_673025/202108/t20210818_9171322.shtml","content":"　　今日俄罗斯记者：中方是否并将在何种情况下参与<em>阿富汗</em>重建？\n　　赵立坚：近日<em>阿富汗</em>局势已经发生重大变化。<em>阿富汗</em>人民历经40多年战乱动荡，渴望和平，人心思定。"}},{"type":"DATA","data":{"imgUrl":null,"title_no_tag":"2021年8月23日外交部发言人汪文斌主持例行记者会","displayTemplateId":8,"documentId":"9170315","time":"2021-08-23 17:53:00","source":"","title":"2021年8月23日外交部发言人汪文斌主持例行记者会","url":"http://www.mfa.gov.cn/web/fyrbt_673021/jzhsl_673025/202108/t20210823_9171325.shtml","content":"　　总台央视记者：中方此前表示，仍有零星中国公民留在<em>阿富汗</em>，请问他们目前安全状况如何？\n　　汪文斌：中方高度关注在<em>阿富汗</em>的中国机构和人员安全。"}},{"type":"DATA","data":{"imgUrl":null,"title_no_tag":"2021年9月7日外交部发言人汪文斌主持例行记者会","displayTemplateId":8,"documentId":"9660591","time":"2021-09-07 18:32:00","source":"","title":"2021年9月7日外交部发言人汪文斌主持例行记者会","url":"http://www.mfa.gov.cn/web/fyrbt_673021/jzhsl_673025/202109/t20210907_9604837.shtml","content":"塔斯社记者：据印度《先锋报》报道，塔利班或将<em>阿富汗</em>巴格拉姆空军基地移交中国，将坎大哈基地移交巴基斯坦，用于开展行动。"}},{"type":"DATA","data":{"imgUrl":null,"title_no_tag":"习近平同塔吉克斯坦总统拉赫蒙通电话","displayTemplateId":6,"documentId":"9604443","time":"2021-09-07 20:18:00","source":"","title":"习近平同塔吉克斯坦总统拉赫蒙通电话","url":"https://www.mfa.gov.cn/web/zyxw/202109/t20210907_9604443.shtml","content":"双方还就<em>阿富汗</em>局势交换意见，同意继续深化反恐安全合作，共同维护地区安全稳定。\n　　"}},{"type":"DATA","data":{"imgUrl":null,"title_no_tag":"习近平同葡萄牙总统德索萨通电话","displayTemplateId":6,"documentId":"9136999","time":"2021-08-27 21:26:00","source":"","title":"习近平同葡萄牙总统德索萨通电话","url":"https://www.mfa.gov.cn/web/zyxw/202108/t20210827_9136999.shtml","content":"中方在<em>阿富汗</em>等地区热点问题上具有重要影响，葡方支持中方发挥更大作用。"}},{"type":"DATA","data":{"imgUrl":null,"title_no_tag":"驻东盟大使邓锡军在线出席2021年第二次东亚峰会大使级会议","displayTemplateId":10,"documentId":"9171353","time":"2021-08-24 10:36:00","source":"驻东盟使团","title":"驻东盟大使邓锡军在线出席2021年第二次东亚峰会大使级会议","url":"https://www.mfa.gov.cn/web/zwbd_673032/wshd_673034/202108/t20210824_9172363.shtml","content":"邓大使就缅甸、<em>阿富汗</em>、朝鲜半岛局势等地区热点问题阐述中方立场，坚决驳斥个别与会国家就南海、涉港、涉疆等问题对中方无理指责，强调涉港、涉疆问题是中国内政，不容干涉，中国和东盟国家正努力排除疫情干扰，积极推进"}},{"type":"DATA","data":{"imgUrl":null,"title_no_tag":"驻阿根廷大使邹肖力同阿国际关系理事会亚洲事务委员在线座谈","displayTemplateId":10,"documentId":"9172474","time":"2021-09-04 00:21:00","source":"驻阿根廷使馆","title":"驻阿根廷大使邹肖力同阿国际关系理事会亚洲事务委员在线座谈","url":"http://www.fmprc.gov.cn/zwbd_673032/gzhd_673042/202109/t20210904_9173484.shtml","content":"邹大使还就中澳关系和<em>阿富汗</em>局势等回答了提问。"}},{"type":"DATA","data":{"imgUrl":null,"title_no_tag":"驻南非大使陈晓东就新冠病毒溯源问题举行线上媒体吹风会","displayTemplateId":10,"documentId":"9172454","time":"2021-08-30 18:44:00","source":"驻南非使馆","title":"驻南非大使陈晓东就新冠病毒溯源问题举行线上媒体吹风会","url":"http://www.fmprc.gov.cn/zwbd_673032/gzhd_673042/202108/t20210830_9173464.shtml","content":"历时20年的<em>阿富汗</em>战争以美军仓皇撤离留下千疮百孔的烂摊子而结束，这一“始乱终弃”的行为再次证明，美国完全不可信、不可靠。"}}]},"left":null,"right":{"box":[]},"searchInfo":{"searchWord":null,"searchTerms":null,"hitWord":null,"wordId":null,"wordIndexName":null},"pager":{"pageNo":9,"pageSize":10,"pageCount":9,"total":88},"spendTime":0.018},"code":200}