{"success":true,"msg":"操作成功","data":{"middle":{"list":[{"imgUrl":null,"title_no_tag":"外交部副部长乐玉成会见俄罗斯驻华大使杰尼索夫","displayTemplateId":6,"documentId":"9605727","time":"2021-09-15 14:10:00","source":"","title":"外交部副部长乐玉成会见俄罗斯驻华大使杰尼索夫","url":"http://www.fmprc.gov.cn/wjbxw_673019/202109/t20210915_9605727.shtml","content":"<em>阿富汗</em>局势发生重大变化以来，中俄一直保持密切沟通，双方立场高度一致。两国元首上个月通话时就<em>阿富汗</em>问题深入交换意见，达成新的重要共识。"},{"imgUrl":null,"title_no_tag":"黑白颠倒的荒唐调查，包藏祸心的政治操弄","displayTemplateId":9,"documentId":"9139493","time":"2021-09-02 12:14:00","source":"驻斯里兰卡使馆","title":"黑白颠倒的荒唐调查，包藏祸心的政治操弄","url":"http://www.fmprc.gov.cn/dszlsjt_673036/202109/t20210902_9140499.shtml","content":"美国急于“甩锅”中国，还意在转移拜登政府在<em>阿富汗</em>溃败所带来的巨大压力。美国对<em>阿富汗</em>“始乱终弃”、对盟友肆意背叛，白宫和情报部门一次次误判形势、错误决策，事态发展令全世界哗然。"},{"imgUrl":null,"title_no_tag":"2021年9月10日外交部发言人赵立坚主持例行记者会","displayTemplateId":8,"documentId":"9660594","time":"2021-09-10 18:03:00","source":"","title":"2021年9月10日外交部发言人赵立坚主持例行记者会","url":"http://www.mfa.gov.cn/web/fyrbt_673021/jzhsl_673025/202109/t20210910_9604840.shtml","content":"作为<em>阿富汗</em>的接壤邻国，没有国家比我们更不愿看到<em>阿富汗</em>重现战乱、再起祸端，没有国家比我们更期盼<em>阿富汗</em>恢复和平、实现发展。\n　　"},{"imgUrl":null,"title_no_tag":"2021年9月9日外交部发言人赵立坚主持例行记者会","displayTemplateId":8,"documentId":"9660593","time":"2021-09-09 18:06:00","source":"","title":"2021年9月9日外交部发言人赵立坚主持例行记者会","url":"http://www.mfa.gov.cn/web/fyrbt_673021/jzhsl_673025/202109/t20210909_9604839.shtml","content":"各方认为，美国及其盟友是<em>阿富汗</em>问题的始作俑者。他们比任何国家都更有义务向<em>阿富汗</em>人民提供经济、民生和人道主义援助，在尊重<em>阿富汗</em>主权独立的前提下，帮助<em>阿富汗</em>实现维稳防乱，走向良性发展。\n　　"},{"imgUrl":null,"title_no_tag":"习近平同意大利总理德拉吉通电话","displayTemplateId":14,"documentId":"10470694","time":"2021-09-07 20:19:00","source":"","title":"习近平同意大利总理德拉吉通电话","url":"https://www.mfa.gov.cn/web/ziliao_674904/zt_674979/dnzt_674981/qtzt/kjgzbdfyyq_699171/202109/t20210907_10403257.shtml","content":"意方感谢中方为意大利开展二十国集团主席国工作提供的支持，赞赏中方为应对全球气候变化作出的积极努力和贡献，高度重视中方在<em>阿富汗</em>问题上的重要影响，希望同中方密切在二十国集团等多边框架下的沟通合作。"},{"imgUrl":null,"title_no_tag":"2021年9月1日外交部发言人汪文斌主持例行记者会","displayTemplateId":8,"documentId":"9170322","time":"2021-09-01 17:24:00","source":"","title":"2021年9月1日外交部发言人汪文斌主持例行记者会","url":"http://www.mfa.gov.cn/web/fyrbt_673021/jzhsl_673025/202109/t20210901_9171332.shtml","content":"数据显示，截至2020年4月，至少47245名<em>阿富汗</em>平民在美国发动的<em>阿富汗</em>战争中丧生。\n　　美军虽然撤出了<em>阿富汗</em>，但美军及其盟友过去20年里在<em>阿富汗</em>屠杀平民的罪行必须调查清楚，凶手必须绳之以法。"},{"imgUrl":null,"title_no_tag":"王毅同伊朗外长阿卜杜拉希扬通电话","displayTemplateId":7,"documentId":"9136796","time":"2021-09-03 21:24:00","source":"","title":"王毅同伊朗外长阿卜杜拉希扬通电话","url":"https://www.mfa.gov.cn/web/wjbzhd/202109/t20210903_9137803.shtml","content":"双方还就<em>阿富汗</em>形势交换了意见。王毅表示，注意到<em>阿富汗</em>塔利班可能于近日宣布组建新政府。希望新政府能够体现开放包容，与恐怖组织彻底切割，同各国特别是邻国建立和发展良好关系。"},{"imgUrl":null,"title_no_tag":"习近平同塔吉克斯坦总统拉赫蒙通电话","displayTemplateId":14,"documentId":"10470693","time":"2021-09-07 20:18:00","source":"","title":"习近平同塔吉克斯坦总统拉赫蒙通电话","url":"https://www.mfa.gov.cn/web/ziliao_674904/zt_674979/dnzt_674981/qtzt/kjgzbdfyyq_699171/202109/t20210907_10403256.shtml","content":"双方还就<em>阿富汗</em>局势交换意见，同意继续深化反恐安全合作，共同维护地区安全稳定。\n　　"},{"imgUrl":null,"title_no_tag":"王毅应约同英国首席大臣兼外交发展大臣拉布通电话","displayTemplateId":7,"documentId":"9136771","time":"2021-08-19 21:35:00","source":"","title":"王毅应约同英国首席大臣兼外交发展大臣拉布通电话","url":"https://www.mfa.gov.cn/web/wjbzhd/202108/t20210819_9137777.shtml","content":"　　2021年8月19日，国务委员兼外长王毅应约同英国首席大臣兼外交发展大臣拉布通电话，就<em>阿富汗</em>局势及中英关系交换意见。\n　　"},{"imgUrl":null,"title_no_tag":"王毅同美国国务卿布林肯通电话","displayTemplateId":7,"documentId":"9136785","time":"2021-08-29 22:53:00","source":"","title":"王毅同美国国务卿布林肯通电话","url":"https://www.mfa.gov.cn/web/wjbzhd/202108/t20210829_9137792.shtml","content":"　　2021年8月29日，国务委员兼外长王毅应约同美国国务卿布林肯通电话，就<em>阿富汗</em>局势及中美关系等交换意见。\n　　"}],"box":[],"listAndBox":[{"type":"DATA","data":{"imgUrl":null,"title_no_tag":"外交部副部长乐玉成会见俄罗斯驻华大使杰尼索夫","displayTemplateId":6,"documentId":"9605727","time":"2021-09-15 14:10:00","source":"","title":"外交部副部长乐玉成会见俄罗斯驻华大使杰尼索夫","url":"http://www.fmprc.gov.cn/wjbxw_673019/202109/t20210915_9605727.shtml","content":"<em>阿富汗</em>局势发生重大变化以来，中俄一直保持密切沟通，双方立场高度一致。两国元首上个月通话时就<em>阿富汗</em>问题深入交换意见，达成新的重要共识。"}},{"type":"DATA","data":{"imgUrl":null,"title_no_tag":"黑白颠倒的荒唐调查，包藏祸心的政治操弄","displayTemplateId":9,"documentId":"9139493","time":"2021-09-02 12:14:00","source":"驻斯里兰卡使馆","title":"黑白颠倒的荒唐调查，包藏祸心的政治操弄","url":"http://www.fmprc.gov.cn/dszlsjt_673036/202109/t20210902_9140499.shtml","content":"美国急于“甩锅”中国，还意在转移拜登政府在<em>阿富汗</em>溃败所带来的巨大压力。美国对<em>阿富汗</em>“始乱终弃”、对盟友肆意背叛，白宫和情报部门一次次误判形势、错误决策，事态发展令全世界哗然。"}},{"type":"DATA","data":{"imgUrl":null,"title_no_tag":"2021年9月10日外交部发言人赵立坚主持例行记者会","displayTemplateId":8,"documentId":"9660594","time":"2021-09-10 18:03:00","source":"","title":"2021年9月10日外交部发言人赵立坚主持例行记者会","url":"http://www.mfa.gov.cn/web/fyrbt_673021/jzhsl_673025/202109/t20210910_9604840.shtml","content":"作为<em>阿富汗</em>的接壤邻国，没有国家比我们更不愿看到<em>阿富汗</em>重现战乱、再起祸端，没有国家比我们更期盼<em>阿富汗</em>恢复和平、实现发展。\n　　"}},{"type":"DATA","data":{"imgUrl":null,"title_no_tag":"2021年9月9日外交部发言人赵立坚主持例行记者会","displayTemplateId":8,"documentId":"9660593","time":"2021-09-09 18:06:00","source":"","title":"2021年9月9日外交部发言人赵立坚主持例行记者会","url":"http://www.mfa.gov.cn/web/fyrbt_673021/jzhsl_673025/202109/t20210909_9604839.shtml","content":"各方认为，美国及其盟友是<em>阿富汗</em>问题的始作俑者。他们比任何国家都更有义务向<em>阿富汗</em>人民提供经济、民生和人道主义援助，在尊重<em>阿富汗</em>主权独立的前提下，帮助<em>阿富汗</em>实现维稳防乱，走向良性发展。\n　　"}},{"type":"DATA","data":{"imgUrl":null,"title_no_tag":"习近平同意大利总理德拉吉通电话","displayTemplateId":14,"documentId":"10470694","time":"2021-09-07 20:19:00","source":"","title":"习近平同意大利总理德拉吉通电话","url":"https://www.mfa.gov.cn/web/ziliao_674904/zt_674979/dnzt_674981/qtzt/kjgzbdfyyq_699171/202109/t20210907_10403257.shtml","content":"意方感谢中方为意大利开展二十国集团主席国工作提供的支持，赞赏中方为应对全球气候变化作出的积极努力和贡献，高度重视中方在<em>阿富汗</em>问题上的重要影响，希望同中方密切在二十国集团等多边框架下的沟通合作。"}},{"type":"DATA","data":{"imgUrl":null,"title_no_tag":"2021年9月1日外交部发言人汪文斌主持例行记者会","displayTemplateId":8,"documentId":"9170322","time":"2021-09-01 17:24:00","source":"","title":"2021年9月1日外交部发言人汪文斌主持例行记者会","url":"http://www.mfa.gov.cn/web/fyrbt_673021/jzhsl_673025/202109/t20210901_9171332.shtml","content":"数据显示，截至2020年4月，至少47245名<em>阿富汗</em>平民在美国发动的<em>阿富汗</em>战争中丧生。\n　　美军虽然撤出了<em>阿富汗</em>，但美军及其盟友过去20年里在<em>阿富汗</em>屠杀平民的罪行必须调查清楚，凶手必须绳之以法。"}},{"type":"DATA","data":{"imgUrl":null,"title_no_tag":"王毅同伊朗外长阿卜杜拉希扬通电话","displayTemplateId":7,"documentId":"9136796","time":"2021-09-03 21:24:00","source":"","title":"王毅同伊朗外长阿卜杜拉希扬通电话","url":"https://www.mfa.gov.cn/web/wjbzhd/202109/t20210903_9137803.shtml","content":"双方还就<em>阿富汗</em>形势交换了意见。王毅表示，注意到<em>阿富汗</em>塔利班可能于近日宣布组建新政府。希望新政府能够体现开放包容，与恐怖组织彻底切割，同各国特别是邻国建立和发展良好关系。"}},{"type":"DATA","data":{"imgUrl":null,"title_no_tag":"习近平同塔吉克斯坦总统拉赫蒙通电话","displayTemplateId":14,"documentId":"10470693","time":"2021-09-07 20:18:00","source":"","title":"习近平同塔吉克斯坦总统拉赫蒙通电话","url":"https://www.mfa.gov.cn/web/ziliao_674904/zt_674979/dnzt_674981/qtzt/kjgzbdfyyq_699171/202109/t20210907_10403256.shtml","content":"双方还就<em>阿富汗</em>局势交换意见，同意继续深化反恐安全合作，共同维护地区安全稳定。\n　　"}},{"type":"DATA","data":{"imgUrl":null,"title_no_tag":"王毅应约同英国首席大臣兼外交发展大臣拉布通电话","displayTemplateId":7,"documentId":"9136771","time":"2021-08-19 21:35:00","source":"","title":"王毅应约同英国首席大臣兼外交发展大臣拉布通电话","url":"https://www.mfa.gov.cn/web/wjbzhd/202108/t20210819_9137777.shtml","content":"　　2021年8月19日，国务委员兼外长王毅应约同英国首席大臣兼外交发展大臣拉布通电话，就<em>阿富汗</em>局势及中英关系交换意见。\n　　"}},{"type":"DATA","data":{"imgUrl":null,"title_no_tag":"王毅同美国国务卿布林肯通电话","displayTemplateId":7,"documentId":"9136785","time":"2021-08-29 22:53:00","source":"","title":"王毅同美国国务卿布林肯通电话","url":"https://www.mfa.gov.cn/web/wjbzhd/202108/t20210829_9137792.shtml","content":"　　2021年8月29日，国务委员兼外长王毅应约同美国国务卿布林肯通电话，就<em>阿富汗</em>局势及中美关系等交换意见。\n　　"}}]},"left":null,"right":{"box":[]},"searchInfo":{"searchWord":null,"searchTerms":null,"hitWord":null,"wordId":null,"wordIndexName":null},"pager":{"pageNo":5,"pageSize":10,"pageCount":9,"total":88},"spendTime":0.029},"code":200}