{"success":true,"msg":"操作成功","data":{"middle":{"list":[{"imgUrl":null,"title_no_tag":"驻英国大使郑泽光在涉疆问题线上新闻发布会上的讲话实录","displayTemplateId":9,"documentId":"9661451","time":"2021-09-10 06:33:00","source":"驻英国使馆","title":"驻英国大使郑泽光在涉疆问题线上新闻发布会上的讲话实录","url":"http://www.fmprc.gov.cn/dszlsjt_673036/202109/t20210910_9605680.shtml","content":"郑大使和徐副部长分别就新疆反恐、人权状况、中英关系以及<em>阿富汗</em>局势对新疆影响等问题回答了中外记者的提问。\n　　"},{"imgUrl":null,"title_no_tag":"习近平将出席上海合作组织成员国&lt;br&gt;元首理事会第二十一次会议、&lt;br&gt;上海合作组织和集体安全条约组织成员国&lt;br&gt;领导人阿富汗问题联合峰会","displayTemplateId":6,"documentId":"9604455","time":"2021-09-16 08:30:00","source":"","title":"习近平将出席上海合作组织成员国&lt;br&gt;元首理事会第二十一次会议、&lt;br&gt;上海合作组织和集体安全条约组织成员国&lt;br&gt;领导人<em>阿富汗</em>问题联合峰会","url":"https://www.mfa.gov.cn/web/zyxw/202109/t20210916_9604455.shtml","content":"　　外交部发言人华春莹宣布：\n　　应塔吉克斯坦共和国总统拉赫蒙邀请，国家主席习近平将于9月17日在北京以视频方式出席上海合作组织成员国元首理事会第二十一次会议、上海合作组织和集体安全条约组织成员国领导人<em>阿富汗</em>问题联合峰会"},{"imgUrl":null,"title_no_tag":"王毅同伊朗外长阿卜杜拉希扬通电话","displayTemplateId":14,"documentId":"9183582","time":"2021-09-03 21:24:00","source":"","title":"王毅同伊朗外长阿卜杜拉希扬通电话","url":"https://www.mfa.gov.cn/web/ziliao_674904/zt_674979/dnzt_674981/qtzt/kjgzbdfyyq_699171/202109/t20210903_9184592.shtml","content":"双方还就<em>阿富汗</em>形势交换了意见。王毅表示，注意到<em>阿富汗</em>塔利班可能于近日宣布组建新政府。希望新政府能够体现开放包容，与恐怖组织彻底切割，同各国特别是邻国建立和发展良好关系。"},{"imgUrl":null,"title_no_tag":"驻巴西大使杨万明接受巴《环球报》采访揭批美政治溯源阴谋","displayTemplateId":9,"documentId":"9139486","time":"2021-09-02 04:52:00","source":"驻巴西使馆","title":"驻巴西大使杨万明接受巴《环球报》采访揭批美政治溯源阴谋","url":"http://www.fmprc.gov.cn/dszlsjt_673036/202109/t20210902_9140492.shtml","content":"杨大使还就中巴关系及5G、疫苗、经贸等领域合作、中国对当前<em>阿富汗</em>局势立场等回答提问。"},{"imgUrl":null,"title_no_tag":"王毅同法国总统外事顾问博纳通电话","displayTemplateId":14,"documentId":"9183576","time":"2021-09-01 22:31:00","source":"","title":"王毅同法国总统外事顾问博纳通电话","url":"https://www.mfa.gov.cn/web/ziliao_674904/zt_674979/dnzt_674981/qtzt/kjgzbdfyyq_699171/202109/t20210901_9184586.shtml","content":"双方还就<em>阿富汗</em>形势交换了意见。"},{"imgUrl":null,"title_no_tag":"驻塔吉克斯坦大使刘彬就新冠肺炎溯源等问题接受“阿维斯塔通讯社”专访","displayTemplateId":10,"documentId":"9709037","time":"2021-09-05 14:32:00","source":"驻塔吉克斯坦使馆","title":"驻塔吉克斯坦大使刘彬就新冠肺炎溯源等问题接受“阿维斯塔通讯社”专访","url":"http://www.fmprc.gov.cn/zwbd_673032/yjcf/202109/t20210910_9651128.shtml","content":"　　2021年9月2日，驻塔吉克斯坦大使刘彬接受“阿维斯塔”通讯社专访，就新冠肺炎溯源、<em>阿富汗</em>局势等问题答记者问。\n　　"},{"imgUrl":null,"title_no_tag":"王毅：美国及其盟友应深刻汲取教训并承担应尽责任","displayTemplateId":7,"documentId":"9660702","time":"2021-09-08 19:10:00","source":"","title":"王毅：美国及其盟友应深刻汲取教训并承担应尽责任","url":"https://www.mfa.gov.cn/web/wjbzhd/202109/t20210908_9604936.shtml","content":"　　2021年9月8日，国务委员兼外长王毅在北京以视频方式出席<em>阿富汗</em>邻国外长会。\n　　王毅表示，我们要对<em>阿富汗</em>问题历史经纬作出客观评判，要求美及其盟友深刻汲取教训，承担应尽责任。"},{"imgUrl":null,"title_no_tag":"习近平同俄罗斯总统普京通电话","displayTemplateId":14,"documentId":"9183560","time":"2021-08-25 20:31:00","source":"","title":"习近平同俄罗斯总统普京通电话","url":"https://www.mfa.gov.cn/web/ziliao_674904/zt_674979/dnzt_674981/qtzt/kjgzbdfyyq_699171/202108/t20210825_9184570.shtml","content":"双方就<em>阿富汗</em>局势深入交换意见。\n　　习近平强调，中方尊重<em>阿富汗</em>的主权、独立、领土完整，奉行不干涉阿内政的政策，一直为政治解决<em>阿富汗</em>问题发挥建设性作用。"},{"imgUrl":null,"title_no_tag":"王毅同荷兰外交大臣卡格通电话","displayTemplateId":14,"documentId":"9183557","time":"2021-08-24 22:14:00","source":"","title":"王毅同荷兰外交大臣卡格通电话","url":"https://www.mfa.gov.cn/web/ziliao_674904/zt_674979/dnzt_674981/qtzt/kjgzbdfyyq_699171/202108/t20210824_9184567.shtml","content":"双方重点就<em>阿富汗</em>局势交换了意见。\n　　王毅表示，<em>阿富汗</em>的未来面临诸多挑战。民族、教派等矛盾错综复杂，贫困、难民等问题亟待解决，局部冲突引发内战的风险需要避免。"},{"imgUrl":null,"title_no_tag":"外交部亚洲司司长刘劲松出席首届中巴智库论坛并作主旨发言","displayTemplateId":14,"documentId":"10470700","time":"2021-09-09 09:42:00","source":"","title":"外交部亚洲司司长刘劲松出席首届中巴智库论坛并作主旨发言","url":"https://www.mfa.gov.cn/web/ziliao_674904/zt_674979/dnzt_674981/qtzt/kjgzbdfyyq_699171/202109/t20210909_10403263.shtml","content":"当前地区形势最突出的是<em>阿富汗</em>局势发生了根本性变化，世人因此更深刻地认识到称王称霸要不得，军事干预要不得，一厢情愿“民主改造”要不得。"}],"box":[],"listAndBox":[{"type":"DATA","data":{"imgUrl":null,"title_no_tag":"驻英国大使郑泽光在涉疆问题线上新闻发布会上的讲话实录","displayTemplateId":9,"documentId":"9661451","time":"2021-09-10 06:33:00","source":"驻英国使馆","title":"驻英国大使郑泽光在涉疆问题线上新闻发布会上的讲话实录","url":"http://www.fmprc.gov.cn/dszlsjt_673036/202109/t20210910_9605680.shtml","content":"郑大使和徐副部长分别就新疆反恐、人权状况、中英关系以及<em>阿富汗</em>局势对新疆影响等问题回答了中外记者的提问。\n　　"}},{"type":"DATA","data":{"imgUrl":null,"title_no_tag":"习近平将出席上海合作组织成员国&lt;br&gt;元首理事会第二十一次会议、&lt;br&gt;上海合作组织和集体安全条约组织成员国&lt;br&gt;领导人阿富汗问题联合峰会","displayTemplateId":6,"documentId":"9604455","time":"2021-09-16 08:30:00","source":"","title":"习近平将出席上海合作组织成员国&lt;br&gt;元首理事会第二十一次会议、&lt;br&gt;上海合作组织和集体安全条约组织成员国&lt;br&gt;领导人<em>阿富汗</em>问题联合峰会","url":"https://www.mfa.gov.cn/web/zyxw/202109/t20210916_9604455.shtml","content":"　　外交部发言人华春莹宣布：\n　　应塔吉克斯坦共和国总统拉赫蒙邀请，国家主席习近平将于9月17日在北京以视频方式出席上海合作组织成员国元首理事会第二十一次会议、上海合作组织和集体安全条约组织成员国领导人<em>阿富汗</em>问题联合峰会"}},{"type":"DATA","data":{"imgUrl":null,"title_no_tag":"王毅同伊朗外长阿卜杜拉希扬通电话","displayTemplateId":14,"documentId":"9183582","time":"2021-09-03 21:24:00","source":"","title":"王毅同伊朗外长阿卜杜拉希扬通电话","url":"https://www.mfa.gov.cn/web/ziliao_674904/zt_674979/dnzt_674981/qtzt/kjgzbdfyyq_699171/202109/t20210903_9184592.shtml","content":"双方还就<em>阿富汗</em>形势交换了意见。王毅表示，注意到<em>阿富汗</em>塔利班可能于近日宣布组建新政府。希望新政府能够体现开放包容，与恐怖组织彻底切割，同各国特别是邻国建立和发展良好关系。"}},{"type":"DATA","data":{"imgUrl":null,"title_no_tag":"驻巴西大使杨万明接受巴《环球报》采访揭批美政治溯源阴谋","displayTemplateId":9,"documentId":"9139486","time":"2021-09-02 04:52:00","source":"驻巴西使馆","title":"驻巴西大使杨万明接受巴《环球报》采访揭批美政治溯源阴谋","url":"http://www.fmprc.gov.cn/dszlsjt_673036/202109/t20210902_9140492.shtml","content":"杨大使还就中巴关系及5G、疫苗、经贸等领域合作、中国对当前<em>阿富汗</em>局势立场等回答提问。"}},{"type":"DATA","data":{"imgUrl":null,"title_no_tag":"王毅同法国总统外事顾问博纳通电话","displayTemplateId":14,"documentId":"9183576","time":"2021-09-01 22:31:00","source":"","title":"王毅同法国总统外事顾问博纳通电话","url":"https://www.mfa.gov.cn/web/ziliao_674904/zt_674979/dnzt_674981/qtzt/kjgzbdfyyq_699171/202109/t20210901_9184586.shtml","content":"双方还就<em>阿富汗</em>形势交换了意见。"}},{"type":"DATA","data":{"imgUrl":null,"title_no_tag":"驻塔吉克斯坦大使刘彬就新冠肺炎溯源等问题接受“阿维斯塔通讯社”专访","displayTemplateId":10,"documentId":"9709037","time":"2021-09-05 14:32:00","source":"驻塔吉克斯坦使馆","title":"驻塔吉克斯坦大使刘彬就新冠肺炎溯源等问题接受“阿维斯塔通讯社”专访","url":"http://www.fmprc.gov.cn/zwbd_673032/yjcf/202109/t20210910_9651128.shtml","content":"　　2021年9月2日，驻塔吉克斯坦大使刘彬接受“阿维斯塔”通讯社专访，就新冠肺炎溯源、<em>阿富汗</em>局势等问题答记者问。\n　　"}},{"type":"DATA","data":{"imgUrl":null,"title_no_tag":"王毅：美国及其盟友应深刻汲取教训并承担应尽责任","displayTemplateId":7,"documentId":"9660702","time":"2021-09-08 19:10:00","source":"","title":"王毅：美国及其盟友应深刻汲取教训并承担应尽责任","url":"https://www.mfa.gov.cn/web/wjbzhd/202109/t20210908_9604936.shtml","content":"　　2021年9月8日，国务委员兼外长王毅在北京以视频方式出席<em>阿富汗</em>邻国外长会。\n　　王毅表示，我们要对<em>阿富汗</em>问题历史经纬作出客观评判，要求美及其盟友深刻汲取教训，承担应尽责任。"}},{"type":"DATA","data":{"imgUrl":null,"title_no_tag":"习近平同俄罗斯总统普京通电话","displayTemplateId":14,"documentId":"9183560","time":"2021-08-25 20:31:00","source":"","title":"习近平同俄罗斯总统普京通电话","url":"https://www.mfa.gov.cn/web/ziliao_674904/zt_674979/dnzt_674981/qtzt/kjgzbdfyyq_699171/202108/t20210825_9184570.shtml","content":"双方就<em>阿富汗</em>局势深入交换意见。\n　　习近平强调，中方尊重<em>阿富汗</em>的主权、独立、领土完整，奉行不干涉阿内政的政策，一直为政治解决<em>阿富汗</em>问题发挥建设性作用。"}},{"type":"DATA","data":{"imgUrl":null,"title_no_tag":"王毅同荷兰外交大臣卡格通电话","displayTemplateId":14,"documentId":"9183557","time":"2021-08-24 22:14:00","source":"","title":"王毅同荷兰外交大臣卡格通电话","url":"https://www.mfa.gov.cn/web/ziliao_674904/zt_674979/dnzt_674981/qtzt/kjgzbdfyyq_699171/202108/t20210824_9184567.shtml","content":"双方重点就<em>阿富汗</em>局势交换了意见。\n　　王毅表示，<em>阿富汗</em>的未来面临诸多挑战。民族、教派等矛盾错综复杂，贫困、难民等问题亟待解决，局部冲突引发内战的风险需要避免。"}},{"type":"DATA","data":{"imgUrl":null,"title_no_tag":"外交部亚洲司司长刘劲松出席首届中巴智库论坛并作主旨发言","displayTemplateId":14,"documentId":"10470700","time":"2021-09-09 09:42:00","source":"","title":"外交部亚洲司司长刘劲松出席首届中巴智库论坛并作主旨发言","url":"https://www.mfa.gov.cn/web/ziliao_674904/zt_674979/dnzt_674981/qtzt/kjgzbdfyyq_699171/202109/t20210909_10403263.shtml","content":"当前地区形势最突出的是<em>阿富汗</em>局势发生了根本性变化，世人因此更深刻地认识到称王称霸要不得，军事干预要不得，一厢情愿“民主改造”要不得。"}}]},"left":null,"right":{"box":[]},"searchInfo":{"searchWord":null,"searchTerms":null,"hitWord":null,"wordId":null,"wordIndexName":null},"pager":{"pageNo":3,"pageSize":10,"pageCount":9,"total":88},"spendTime":0.019},"code":200}