{"success":true,"msg":"操作成功","data":{"middle":{"list":[{"imgUrl":null,"title_no_tag":"阿富汗邻国外长会联合声明","displayTemplateId":14,"documentId":"10470705","time":"2021-09-09 23:02:00","source":"","title":"<em>阿富汗</em>邻国外长会联合声明","url":"https://www.mfa.gov.cn/web/ziliao_674904/zt_674979/dnzt_674981/qtzt/kjgzbdfyyq_699171/202109/t20210909_10403268.shtml","content":"认识到<em>阿富汗</em>局势演变过程再次证明，军事手段不能解决<em>阿富汗</em>问题，强调在<em>阿富汗</em>建立一个<em>阿富汗</em>各民族参与的包容性政治架构十分重要。\n　　"},{"imgUrl":null,"title_no_tag":"阿富汗邻国外长会联合声明","displayTemplateId":11,"documentId":"9927809","time":"2021-09-09 23:02:00","source":"","title":"<em>阿富汗</em>邻国外长会联合声明","url":"https://www.mfa.gov.cn/web/ziliao_674904/1179_674909/202109/t20210909_9869321.shtml","content":"认识到<em>阿富汗</em>局势演变过程再次证明，军事手段不能解决<em>阿富汗</em>问题，强调在<em>阿富汗</em>建立一个<em>阿富汗</em>各民族参与的包容性政治架构十分重要。\n　　"},{"imgUrl":null,"title_no_tag":"王毅出席首次阿富汗邻国外长会","displayTemplateId":14,"documentId":"10470698","time":"2021-09-08 19:21:00","source":"","title":"王毅出席首次<em>阿富汗</em>邻国外长会","url":"https://www.mfa.gov.cn/web/ziliao_674904/zt_674979/dnzt_674981/qtzt/kjgzbdfyyq_699171/202109/t20210908_10403261.shtml","content":"　　2021年9月8日，国务委员兼外长王毅在北京以视频方式出席首次<em>阿富汗</em>邻国外长会。\n　　王毅表示，今天的<em>阿富汗</em>站在历史的十字路口。"},{"imgUrl":null,"title_no_tag":"常驻联合国日内瓦办事处和瑞士其他国际组织代表陈旭大使出席阿富汗人道局势部长级会议","displayTemplateId":10,"documentId":"9662398","time":"2021-09-13 21:50:00","source":"常驻联合国日内瓦办事处和瑞士其他国际组织代表团","title":"常驻联合国日内瓦办事处和瑞士其他国际组织代表陈旭大使出席<em>阿富汗</em>人道局势部长级会议","url":"https://www.mfa.gov.cn/web/zwbd_673032/wshd_673034/202109/t20210914_9606059.shtml","content":"陈大使指出，中方支持联合国为缓解<em>阿富汗</em>人道危机、帮助<em>阿富汗</em>早日实现局势平稳过渡、走上和平发展道路发挥更大作用，欢迎联合国发起本次对<em>阿富汗</em>人道援助紧急呼吁，支持联合国框架下以及<em>阿富汗</em>邻国协调合作机制等多种涉及<em>阿富汗</em>问题的多边机制相互补充"},{"imgUrl":null,"title_no_tag":"驻俄罗斯大使张汉晖就阿富汗局势接受俄罗斯国际文传电讯社采访","displayTemplateId":9,"documentId":"9139461","time":"2021-08-31 15:11:00","source":"驻俄罗斯使馆","title":"驻俄罗斯大使张汉晖就<em>阿富汗</em>局势接受俄罗斯国际文传电讯社采访","url":"http://www.fmprc.gov.cn/dszlsjt_673036/202109/t20210901_9140468.shtml","content":"长期以来，中方在充分尊重<em>阿富汗</em>国家主权及国内各派意愿基础上，同<em>阿富汗</em>塔利班等保持着联系和沟通，一直为推动政治解决<em>阿富汗</em>问题发挥建设性作用。"},{"imgUrl":null,"title_no_tag":"常驻联合国日内瓦办事处和瑞士其他国际组织代表陈旭大使在阿富汗人道主义局势高级别部长级会议上的发言","displayTemplateId":9,"documentId":"9661459","time":"2021-09-13 21:57:00","source":"常驻联合国日内瓦办事处和瑞士其他国际组织代表团","title":"常驻联合国日内瓦办事处和瑞士其他国际组织代表陈旭大使在<em>阿富汗</em>人道主义局势高级别部长级会议上的发言","url":"http://www.fmprc.gov.cn/dszlsjt_673036/202109/t20210914_9605688.shtml","content":"中方支持联合国为缓解<em>阿富汗</em>人道危机、帮助<em>阿富汗</em>早日实现局势平稳过渡、走上和平发展道路发挥更大作用，欢迎联合国发起本次对<em>阿富汗</em>人道援助紧急呼吁，支持联合国和其他涉及<em>阿富汗</em>问题的多边机制加强合作，相互补充，"},{"imgUrl":null,"title_no_tag":"王毅国务委员兼外长在阿富汗邻国外长会上的讲话","displayTemplateId":14,"documentId":"10470699","time":"2021-09-08 22:58:00","source":"","title":"王毅国务委员兼外长在<em>阿富汗</em>邻国外长会上的讲话","url":"https://www.mfa.gov.cn/web/ziliao_674904/zt_674979/dnzt_674981/qtzt/kjgzbdfyyq_699171/202109/t20210908_10403262.shtml","content":"　　各位外长、各位朋友，\n　　很高兴和各位同事见面，共同出席首次<em>阿富汗</em>邻国外长会。当前<em>阿富汗</em>局势发生根本性变化。作为<em>阿富汗</em>的邻国，我们有必要及时交换看法、协调立场。\n　　"},{"imgUrl":null,"title_no_tag":"阿富汗邻国外长会联合声明","displayTemplateId":7,"documentId":"9660708","time":"2021-09-09 23:02:00","source":"","title":"<em>阿富汗</em>邻国外长会联合声明","url":"https://www.mfa.gov.cn/web/wjbzhd/202109/t20210909_9604942.shtml","content":"认识到<em>阿富汗</em>局势演变过程再次证明，军事手段不能解决<em>阿富汗</em>问题，强调在<em>阿富汗</em>建立一个<em>阿富汗</em>各民族参与的包容性政治架构十分重要。\n　　"},{"imgUrl":null,"title_no_tag":"王毅：今天的阿富汗站在历史的十字路口","displayTemplateId":14,"documentId":"10470697","time":"2021-09-08 19:05:00","source":"","title":"王毅：今天的<em>阿富汗</em>站在历史的十字路口","url":"https://www.mfa.gov.cn/web/ziliao_674904/zt_674979/dnzt_674981/qtzt/kjgzbdfyyq_699171/202109/t20210908_10403260.shtml","content":"　　2021年9月8日，国务委员兼外长王毅在北京以视频方式出席<em>阿富汗</em>邻国外长会。\n　　王毅表示，今天的<em>阿富汗</em>站在历史的十字路口。"},{"imgUrl":null,"title_no_tag":"驻巴哈马大使戴庆利在巴《论坛报》撰文谈阿富汗局势的教训","displayTemplateId":9,"documentId":"9139459","time":"2021-08-31 11:25:00","source":"驻巴哈马使馆","title":"驻巴哈马大使戴庆利在巴《论坛报》撰文谈<em>阿富汗</em>局势的教训","url":"http://www.fmprc.gov.cn/dszlsjt_673036/202108/t20210831_9140466.shtml","content":"　　2021年8月30日，针对近日巴哈马媒体涉<em>阿富汗</em>报道和评论中对中国作用的某些模糊甚至错误认识，驻巴哈马大使戴庆利在巴主流报纸《论坛报》发表题为《<em>阿富汗</em>局势的深刻教训值得认真汲取》的文章，强调<em>阿富汗</em>局势突显西方在阿强加西式治理模式和武力至上反恐方式的失败"}],"box":[],"listAndBox":[{"type":"DATA","data":{"imgUrl":null,"title_no_tag":"阿富汗邻国外长会联合声明","displayTemplateId":14,"documentId":"10470705","time":"2021-09-09 23:02:00","source":"","title":"<em>阿富汗</em>邻国外长会联合声明","url":"https://www.mfa.gov.cn/web/ziliao_674904/zt_674979/dnzt_674981/qtzt/kjgzbdfyyq_699171/202109/t20210909_10403268.shtml","content":"认识到<em>阿富汗</em>局势演变过程再次证明，军事手段不能解决<em>阿富汗</em>问题，强调在<em>阿富汗</em>建立一个<em>阿富汗</em>各民族参与的包容性政治架构十分重要。\n　　"}},{"type":"DATA","data":{"imgUrl":null,"title_no_tag":"阿富汗邻国外长会联合声明","displayTemplateId":11,"documentId":"9927809","time":"2021-09-09 23:02:00","source":"","title":"<em>阿富汗</em>邻国外长会联合声明","url":"https://www.mfa.gov.cn/web/ziliao_674904/1179_674909/202109/t20210909_9869321.shtml","content":"认识到<em>阿富汗</em>局势演变过程再次证明，军事手段不能解决<em>阿富汗</em>问题，强调在<em>阿富汗</em>建立一个<em>阿富汗</em>各民族参与的包容性政治架构十分重要。\n　　"}},{"type":"DATA","data":{"imgUrl":null,"title_no_tag":"王毅出席首次阿富汗邻国外长会","displayTemplateId":14,"documentId":"10470698","time":"2021-09-08 19:21:00","source":"","title":"王毅出席首次<em>阿富汗</em>邻国外长会","url":"https://www.mfa.gov.cn/web/ziliao_674904/zt_674979/dnzt_674981/qtzt/kjgzbdfyyq_699171/202109/t20210908_10403261.shtml","content":"　　2021年9月8日，国务委员兼外长王毅在北京以视频方式出席首次<em>阿富汗</em>邻国外长会。\n　　王毅表示，今天的<em>阿富汗</em>站在历史的十字路口。"}},{"type":"DATA","data":{"imgUrl":null,"title_no_tag":"常驻联合国日内瓦办事处和瑞士其他国际组织代表陈旭大使出席阿富汗人道局势部长级会议","displayTemplateId":10,"documentId":"9662398","time":"2021-09-13 21:50:00","source":"常驻联合国日内瓦办事处和瑞士其他国际组织代表团","title":"常驻联合国日内瓦办事处和瑞士其他国际组织代表陈旭大使出席<em>阿富汗</em>人道局势部长级会议","url":"https://www.mfa.gov.cn/web/zwbd_673032/wshd_673034/202109/t20210914_9606059.shtml","content":"陈大使指出，中方支持联合国为缓解<em>阿富汗</em>人道危机、帮助<em>阿富汗</em>早日实现局势平稳过渡、走上和平发展道路发挥更大作用，欢迎联合国发起本次对<em>阿富汗</em>人道援助紧急呼吁，支持联合国框架下以及<em>阿富汗</em>邻国协调合作机制等多种涉及<em>阿富汗</em>问题的多边机制相互补充"}},{"type":"DATA","data":{"imgUrl":null,"title_no_tag":"驻俄罗斯大使张汉晖就阿富汗局势接受俄罗斯国际文传电讯社采访","displayTemplateId":9,"documentId":"9139461","time":"2021-08-31 15:11:00","source":"驻俄罗斯使馆","title":"驻俄罗斯大使张汉晖就<em>阿富汗</em>局势接受俄罗斯国际文传电讯社采访","url":"http://www.fmprc.gov.cn/dszlsjt_673036/202109/t20210901_9140468.shtml","content":"长期以来，中方在充分尊重<em>阿富汗</em>国家主权及国内各派意愿基础上，同<em>阿富汗</em>塔利班等保持着联系和沟通，一直为推动政治解决<em>阿富汗</em>问题发挥建设性作用。"}},{"type":"DATA","data":{"imgUrl":null,"title_no_tag":"常驻联合国日内瓦办事处和瑞士其他国际组织代表陈旭大使在阿富汗人道主义局势高级别部长级会议上的发言","displayTemplateId":9,"documentId":"9661459","time":"2021-09-13 21:57:00","source":"常驻联合国日内瓦办事处和瑞士其他国际组织代表团","title":"常驻联合国日内瓦办事处和瑞士其他国际组织代表陈旭大使在<em>阿富汗</em>人道主义局势高级别部长级会议上的发言","url":"http://www.fmprc.gov.cn/dszlsjt_673036/202109/t20210914_9605688.shtml","content":"中方支持联合国为缓解<em>阿富汗</em>人道危机、帮助<em>阿富汗</em>早日实现局势平稳过渡、走上和平发展道路发挥更大作用，欢迎联合国发起本次对<em>阿富汗</em>人道援助紧急呼吁，支持联合国和其他涉及<em>阿富汗</em>问题的多边机制加强合作，相互补充，"}},{"type":"DATA","data":{"imgUrl":null,"title_no_tag":"王毅国务委员兼外长在阿富汗邻国外长会上的讲话","displayTemplateId":14,"documentId":"10470699","time":"2021-09-08 22:58:00","source":"","title":"王毅国务委员兼外长在<em>阿富汗</em>邻国外长会上的讲话","url":"https://www.mfa.gov.cn/web/ziliao_674904/zt_674979/dnzt_674981/qtzt/kjgzbdfyyq_699171/202109/t20210908_10403262.shtml","content":"　　各位外长、各位朋友，\n　　很高兴和各位同事见面，共同出席首次<em>阿富汗</em>邻国外长会。当前<em>阿富汗</em>局势发生根本性变化。作为<em>阿富汗</em>的邻国，我们有必要及时交换看法、协调立场。\n　　"}},{"type":"DATA","data":{"imgUrl":null,"title_no_tag":"阿富汗邻国外长会联合声明","displayTemplateId":7,"documentId":"9660708","time":"2021-09-09 23:02:00","source":"","title":"<em>阿富汗</em>邻国外长会联合声明","url":"https://www.mfa.gov.cn/web/wjbzhd/202109/t20210909_9604942.shtml","content":"认识到<em>阿富汗</em>局势演变过程再次证明，军事手段不能解决<em>阿富汗</em>问题，强调在<em>阿富汗</em>建立一个<em>阿富汗</em>各民族参与的包容性政治架构十分重要。\n　　"}},{"type":"DATA","data":{"imgUrl":null,"title_no_tag":"王毅：今天的阿富汗站在历史的十字路口","displayTemplateId":14,"documentId":"10470697","time":"2021-09-08 19:05:00","source":"","title":"王毅：今天的<em>阿富汗</em>站在历史的十字路口","url":"https://www.mfa.gov.cn/web/ziliao_674904/zt_674979/dnzt_674981/qtzt/kjgzbdfyyq_699171/202109/t20210908_10403260.shtml","content":"　　2021年9月8日，国务委员兼外长王毅在北京以视频方式出席<em>阿富汗</em>邻国外长会。\n　　王毅表示，今天的<em>阿富汗</em>站在历史的十字路口。"}},{"type":"DATA","data":{"imgUrl":null,"title_no_tag":"驻巴哈马大使戴庆利在巴《论坛报》撰文谈阿富汗局势的教训","displayTemplateId":9,"documentId":"9139459","time":"2021-08-31 11:25:00","source":"驻巴哈马使馆","title":"驻巴哈马大使戴庆利在巴《论坛报》撰文谈<em>阿富汗</em>局势的教训","url":"http://www.fmprc.gov.cn/dszlsjt_673036/202108/t20210831_9140466.shtml","content":"　　2021年8月30日，针对近日巴哈马媒体涉<em>阿富汗</em>报道和评论中对中国作用的某些模糊甚至错误认识，驻巴哈马大使戴庆利在巴主流报纸《论坛报》发表题为《<em>阿富汗</em>局势的深刻教训值得认真汲取》的文章，强调<em>阿富汗</em>局势突显西方在阿强加西式治理模式和武力至上反恐方式的失败"}}]},"left":null,"right":{"box":[]},"searchInfo":{"searchWord":null,"searchTerms":null,"hitWord":null,"wordId":null,"wordIndexName":null},"pager":{"pageNo":1,"pageSize":10,"pageCount":9,"total":88},"spendTime":0.017},"code":200}