{"success":true,"msg":"操作成功","data":{"middle":{"list":[{"imgUrl":null,"title_no_tag":"驻克罗地亚大使许尔文在克对华友好协会年会上的在线演讲","displayTemplateId":9,"documentId":"9139467","time":"2021-08-31 22:26:00","source":"驻克罗地亚使馆","title":"驻克罗地亚大使许尔文在克对华友好协会年会上的在线演讲","url":"http://www.fmprc.gov.cn/dszlsjt_673036/202108/t20210831_9140474.shtml","content":"一个政权没有人民支持是立不住脚的；用强权及军事手段处理问题只会使问题越来越多，<em>阿富汗</em>战争失败的教训再次证明了这一点。\n　　朋友们，\n　　中方始终从战略高度和长远角度看待中克关系，珍视同克方传统友谊。"},{"imgUrl":null,"title_no_tag":"外交部亚洲司司长刘劲松出席首届中巴智库论坛并作主旨发言","displayTemplateId":6,"documentId":"9605713","time":"2021-09-09 09:42:00","source":"","title":"外交部亚洲司司长刘劲松出席首届中巴智库论坛并作主旨发言","url":"http://www.fmprc.gov.cn/wjbxw_673019/202109/t20210909_9605713.shtml","content":"当前地区形势最突出的是<em>阿富汗</em>局势发生了根本性变化，世人因此更深刻地认识到称王称霸要不得，军事干预要不得，一厢情愿“民主改造”要不得。"},{"imgUrl":null,"title_no_tag":"2021年8月27日外交部发言人赵立坚主持例行记者会","displayTemplateId":8,"documentId":"9170319","time":"2021-08-27 19:19:00","source":"","title":"2021年8月27日外交部发言人赵立坚主持例行记者会","url":"http://www.mfa.gov.cn/web/fyrbt_673021/jzhsl_673025/202108/t20210827_9171329.shtml","content":"这一事件说明，<em>阿富汗</em>安全形势依然复杂严峻。希望有关方面采取有效举措，确保<em>阿富汗</em>局势平稳过渡，确保<em>阿富汗</em>人民和外国在阿公民的人身安全。\n　　经中国驻<em>阿富汗</em>使馆了解核实，迄未收到中国公民伤亡的报告。"},{"imgUrl":null,"title_no_tag":"驻斯里兰卡大使戚振宏拜会斯总理马欣达","displayTemplateId":10,"documentId":"9171329","time":"2021-08-19 11:47:00","source":"驻斯里兰卡使馆","title":"驻斯里兰卡大使戚振宏拜会斯总理马欣达","url":"https://www.mfa.gov.cn/web/zwbd_673032/wshd_673034/202108/t20210819_9172339.shtml","content":"双方还就<em>阿富汗</em>形势等共同关心的问题交换了意见。\n　　斯新任外交部长、人民阵线党主席佩里斯，金融国务部长卡布拉尔，总理府常秘塞纳拉特，总理外事秘书赫拉特等在座。"},{"imgUrl":null,"title_no_tag":"2021年8月30日外交部发言人汪文斌主持例行记者会","displayTemplateId":8,"documentId":"9170320","time":"2021-08-30 18:27:00","source":"","title":"2021年8月30日外交部发言人汪文斌主持例行记者会","url":"http://www.mfa.gov.cn/web/fyrbt_673021/jzhsl_673025/202108/t20210830_9171330.shtml","content":"彭博社记者：法国总统马克龙日前表示，法、英、德将倡议在喀布尔建立安全区，面临风险的<em>阿富汗</em>人可以在此停留直至从<em>阿富汗</em>撤离。请问中方是否支持维和部队进入<em>阿富汗</em>以帮助建立安全区？\n　　"},{"imgUrl":null,"title_no_tag":"习近平同意大利总理德拉吉通电话","displayTemplateId":6,"documentId":"9604442","time":"2021-09-07 20:19:00","source":"","title":"习近平同意大利总理德拉吉通电话","url":"https://www.mfa.gov.cn/web/zyxw/202109/t20210907_9604442.shtml","content":"意方感谢中方为意大利开展二十国集团主席国工作提供的支持，赞赏中方为应对全球气候变化作出的积极努力和贡献，高度重视中方在<em>阿富汗</em>问题上的重要影响，希望同中方密切在二十国集团等多边框架下的沟通合作。"},{"imgUrl":null,"title_no_tag":"2021年8月17日外交部发言人华春莹主持例行记者会","displayTemplateId":8,"documentId":"9170311","time":"2021-08-17 18:41:00","source":"","title":"2021年8月17日外交部发言人华春莹主持例行记者会","url":"http://www.mfa.gov.cn/web/fyrbt_673021/jzhsl_673025/202108/t20210817_9171321.shtml","content":"华春莹：中国作为<em>阿富汗</em>最大邻国，始终尊重<em>阿富汗</em>主权独立和领土完整，始终坚持不干涉<em>阿富汗</em>内政，始终奉行面向全体<em>阿富汗</em>人民的友好政策。\n　　"},{"imgUrl":null,"title_no_tag":"杨洁篪出席第十一次金砖国家安全事务高级代表视频会议","displayTemplateId":6,"documentId":"9136982","time":"2021-08-25 00:43:00","source":"","title":"杨洁篪出席第十一次金砖国家安全事务高级代表视频会议","url":"https://www.mfa.gov.cn/web/zyxw/202108/t20210825_9136982.shtml","content":"杨洁篪强调，政治解决是<em>阿富汗</em>问题的唯一出路。国际社会应尊重阿人民的意愿和选择，鼓励阿建立符合自身国情、广泛包容的政治架构。"},{"imgUrl":null,"title_no_tag":"2021年8月25日外交部发言人汪文斌主持例行记者会","displayTemplateId":8,"documentId":"9170317","time":"2021-08-25 18:24:00","source":"","title":"2021年8月25日外交部发言人汪文斌主持例行记者会","url":"http://www.mfa.gov.cn/web/fyrbt_673021/jzhsl_673025/202108/t20210825_9171327.shtml","content":"《南华早报》记者：<em>阿富汗</em>塔利班驻多哈政治处发言人于当地时间24日发推文表示，塔利班代表团在喀布尔会见了中国驻<em>阿富汗</em>大使一行。发言人能否介绍相关情况？\n　　"},{"imgUrl":null,"title_no_tag":"2021年8月24日外交部发言人汪文斌主持例行记者会","displayTemplateId":8,"documentId":"9170316","time":"2021-08-24 17:47:00","source":"","title":"2021年8月24日外交部发言人汪文斌主持例行记者会","url":"http://www.mfa.gov.cn/web/fyrbt_673021/jzhsl_673025/202108/t20210824_9171326.shtml","content":"凤凰卫视记者：我们关注到，七国集团将于24日举行视频会议讨论<em>阿富汗</em>危机。据媒体报道，英国计划在会上推动各国考虑对塔利班实施新的制裁。中方对此有何评论？\n　　汪文斌：<em>阿富汗</em>是独立主权国家。"}],"box":[],"listAndBox":[{"type":"DATA","data":{"imgUrl":null,"title_no_tag":"驻克罗地亚大使许尔文在克对华友好协会年会上的在线演讲","displayTemplateId":9,"documentId":"9139467","time":"2021-08-31 22:26:00","source":"驻克罗地亚使馆","title":"驻克罗地亚大使许尔文在克对华友好协会年会上的在线演讲","url":"http://www.fmprc.gov.cn/dszlsjt_673036/202108/t20210831_9140474.shtml","content":"一个政权没有人民支持是立不住脚的；用强权及军事手段处理问题只会使问题越来越多，<em>阿富汗</em>战争失败的教训再次证明了这一点。\n　　朋友们，\n　　中方始终从战略高度和长远角度看待中克关系，珍视同克方传统友谊。"}},{"type":"DATA","data":{"imgUrl":null,"title_no_tag":"外交部亚洲司司长刘劲松出席首届中巴智库论坛并作主旨发言","displayTemplateId":6,"documentId":"9605713","time":"2021-09-09 09:42:00","source":"","title":"外交部亚洲司司长刘劲松出席首届中巴智库论坛并作主旨发言","url":"http://www.fmprc.gov.cn/wjbxw_673019/202109/t20210909_9605713.shtml","content":"当前地区形势最突出的是<em>阿富汗</em>局势发生了根本性变化，世人因此更深刻地认识到称王称霸要不得，军事干预要不得，一厢情愿“民主改造”要不得。"}},{"type":"DATA","data":{"imgUrl":null,"title_no_tag":"2021年8月27日外交部发言人赵立坚主持例行记者会","displayTemplateId":8,"documentId":"9170319","time":"2021-08-27 19:19:00","source":"","title":"2021年8月27日外交部发言人赵立坚主持例行记者会","url":"http://www.mfa.gov.cn/web/fyrbt_673021/jzhsl_673025/202108/t20210827_9171329.shtml","content":"这一事件说明，<em>阿富汗</em>安全形势依然复杂严峻。希望有关方面采取有效举措，确保<em>阿富汗</em>局势平稳过渡，确保<em>阿富汗</em>人民和外国在阿公民的人身安全。\n　　经中国驻<em>阿富汗</em>使馆了解核实，迄未收到中国公民伤亡的报告。"}},{"type":"DATA","data":{"imgUrl":null,"title_no_tag":"驻斯里兰卡大使戚振宏拜会斯总理马欣达","displayTemplateId":10,"documentId":"9171329","time":"2021-08-19 11:47:00","source":"驻斯里兰卡使馆","title":"驻斯里兰卡大使戚振宏拜会斯总理马欣达","url":"https://www.mfa.gov.cn/web/zwbd_673032/wshd_673034/202108/t20210819_9172339.shtml","content":"双方还就<em>阿富汗</em>形势等共同关心的问题交换了意见。\n　　斯新任外交部长、人民阵线党主席佩里斯，金融国务部长卡布拉尔，总理府常秘塞纳拉特，总理外事秘书赫拉特等在座。"}},{"type":"DATA","data":{"imgUrl":null,"title_no_tag":"2021年8月30日外交部发言人汪文斌主持例行记者会","displayTemplateId":8,"documentId":"9170320","time":"2021-08-30 18:27:00","source":"","title":"2021年8月30日外交部发言人汪文斌主持例行记者会","url":"http://www.mfa.gov.cn/web/fyrbt_673021/jzhsl_673025/202108/t20210830_9171330.shtml","content":"彭博社记者：法国总统马克龙日前表示，法、英、德将倡议在喀布尔建立安全区，面临风险的<em>阿富汗</em>人可以在此停留直至从<em>阿富汗</em>撤离。请问中方是否支持维和部队进入<em>阿富汗</em>以帮助建立安全区？\n　　"}},{"type":"DATA","data":{"imgUrl":null,"title_no_tag":"习近平同意大利总理德拉吉通电话","displayTemplateId":6,"documentId":"9604442","time":"2021-09-07 20:19:00","source":"","title":"习近平同意大利总理德拉吉通电话","url":"https://www.mfa.gov.cn/web/zyxw/202109/t20210907_9604442.shtml","content":"意方感谢中方为意大利开展二十国集团主席国工作提供的支持，赞赏中方为应对全球气候变化作出的积极努力和贡献，高度重视中方在<em>阿富汗</em>问题上的重要影响，希望同中方密切在二十国集团等多边框架下的沟通合作。"}},{"type":"DATA","data":{"imgUrl":null,"title_no_tag":"2021年8月17日外交部发言人华春莹主持例行记者会","displayTemplateId":8,"documentId":"9170311","time":"2021-08-17 18:41:00","source":"","title":"2021年8月17日外交部发言人华春莹主持例行记者会","url":"http://www.mfa.gov.cn/web/fyrbt_673021/jzhsl_673025/202108/t20210817_9171321.shtml","content":"华春莹：中国作为<em>阿富汗</em>最大邻国，始终尊重<em>阿富汗</em>主权独立和领土完整，始终坚持不干涉<em>阿富汗</em>内政，始终奉行面向全体<em>阿富汗</em>人民的友好政策。\n　　"}},{"type":"DATA","data":{"imgUrl":null,"title_no_tag":"杨洁篪出席第十一次金砖国家安全事务高级代表视频会议","displayTemplateId":6,"documentId":"9136982","time":"2021-08-25 00:43:00","source":"","title":"杨洁篪出席第十一次金砖国家安全事务高级代表视频会议","url":"https://www.mfa.gov.cn/web/zyxw/202108/t20210825_9136982.shtml","content":"杨洁篪强调，政治解决是<em>阿富汗</em>问题的唯一出路。国际社会应尊重阿人民的意愿和选择，鼓励阿建立符合自身国情、广泛包容的政治架构。"}},{"type":"DATA","data":{"imgUrl":null,"title_no_tag":"2021年8月25日外交部发言人汪文斌主持例行记者会","displayTemplateId":8,"documentId":"9170317","time":"2021-08-25 18:24:00","source":"","title":"2021年8月25日外交部发言人汪文斌主持例行记者会","url":"http://www.mfa.gov.cn/web/fyrbt_673021/jzhsl_673025/202108/t20210825_9171327.shtml","content":"《南华早报》记者：<em>阿富汗</em>塔利班驻多哈政治处发言人于当地时间24日发推文表示，塔利班代表团在喀布尔会见了中国驻<em>阿富汗</em>大使一行。发言人能否介绍相关情况？\n　　"}},{"type":"DATA","data":{"imgUrl":null,"title_no_tag":"2021年8月24日外交部发言人汪文斌主持例行记者会","displayTemplateId":8,"documentId":"9170316","time":"2021-08-24 17:47:00","source":"","title":"2021年8月24日外交部发言人汪文斌主持例行记者会","url":"http://www.mfa.gov.cn/web/fyrbt_673021/jzhsl_673025/202108/t20210824_9171326.shtml","content":"凤凰卫视记者：我们关注到，七国集团将于24日举行视频会议讨论<em>阿富汗</em>危机。据媒体报道，英国计划在会上推动各国考虑对塔利班实施新的制裁。中方对此有何评论？\n　　汪文斌：<em>阿富汗</em>是独立主权国家。"}}]},"left":null,"right":{"box":[]},"searchInfo":{"searchWord":null,"searchTerms":null,"hitWord":null,"wordId":null,"wordIndexName":null},"pager":{"pageNo":8,"pageSize":10,"pageCount":9,"total":88},"spendTime":0.039},"code":200}