{"success":true,"msg":"操作成功","data":{"middle":{"list":[{"imgUrl":null,"title_no_tag":"王毅同美国国务卿布林肯通电话","displayTemplateId":14,"documentId":"9183572","time":"2021-08-29 22:53:00","source":"","title":"王毅同美国国务卿布林肯通电话","url":"https://www.mfa.gov.cn/web/ziliao_674904/zt_674979/dnzt_674981/qtzt/kjgzbdfyyq_699171/202108/t20210829_9184582.shtml","content":"　　2021年8月29日，国务委员兼外长王毅应约同美国国务卿布林肯通电话，就<em>阿富汗</em>局势及中美关系等交换意见。\n　　"},{"imgUrl":null,"title_no_tag":"王毅同法国总统外事顾问博纳通电话","displayTemplateId":7,"documentId":"9136787","time":"2021-09-01 22:31:00","source":"","title":"王毅同法国总统外事顾问博纳通电话","url":"https://www.mfa.gov.cn/web/wjbzhd/202109/t20210901_9137794.shtml","content":"双方还就<em>阿富汗</em>形势交换了意见。"},{"imgUrl":null,"title_no_tag":"外交部亚洲司司长刘劲松会见埃及驻华大使巴德里","displayTemplateId":6,"documentId":"9605717","time":"2021-09-10 14:18:00","source":"","title":"外交部亚洲司司长刘劲松会见埃及驻华大使巴德里","url":"http://www.fmprc.gov.cn/wjbxw_673019/202109/t20210910_9605717.shtml","content":"　　2021年9月10日，外交部亚洲司司长刘劲松应约会见埃及驻华大使穆罕默德·巴德里，就<em>阿富汗</em>问题全面、深入交换了意见。刘劲松阐述了中方对阿政策，重点介绍了日前成功举办的首次<em>阿富汗</em>邻国外长会情况。"},{"imgUrl":null,"title_no_tag":"2021年9月8日外交部发言人汪文斌主持例行记者会","displayTemplateId":8,"documentId":"9660592","time":"2021-09-08 17:56:00","source":"","title":"2021年9月8日外交部发言人汪文斌主持例行记者会","url":"http://www.mfa.gov.cn/web/fyrbt_673021/jzhsl_673025/202109/t20210908_9604838.shtml","content":"我们尊重<em>阿富汗</em>主权独立和领土完整，不干涉<em>阿富汗</em>内政，支持<em>阿富汗</em>人民自主选择符合本国国情的发展道路，希望<em>阿富汗</em>能构建广泛包容的政治架构，奉行温和稳健的内外政策，坚决打击各类恐怖势力，同各国特别是周边国家友好相处"},{"imgUrl":null,"title_no_tag":"2021年9月13日外交部发言人赵立坚主持例行记者会","displayTemplateId":8,"documentId":"9660595","time":"2021-09-13 19:51:00","source":"","title":"2021年9月13日外交部发言人赵立坚主持例行记者会","url":"http://www.mfa.gov.cn/web/fyrbt_673021/jzhsl_673025/202109/t20210913_9604841.shtml","content":"中方愿同各国一道深化反恐合作，防止<em>阿富汗</em>成为恐怖势力的滋生地和庇护所，共同维护地区和平稳定。\n　　美国和北约从<em>阿富汗</em>不负责任撤军可能使恐怖主义滋生、蔓延，给<em>阿富汗</em>和地区安全稳定带来严重挑战。\n　　"},{"imgUrl":null,"title_no_tag":"2021年9月15日外交部发言人赵立坚主持例行记者会","displayTemplateId":8,"documentId":"9660597","time":"2021-09-15 18:37:00","source":"","title":"2021年9月15日外交部发言人赵立坚主持例行记者会","url":"http://www.mfa.gov.cn/web/fyrbt_673021/jzhsl_673025/202109/t20210915_9604843.shtml","content":"《环球时报》记者：据报道，近20年来，美国在叙利亚、伊拉克、<em>阿富汗</em>等多国发动空袭超过9万次，在空袭中丧生的平民最高或达4.8万名。中方对此有何评论？\n　　"},{"imgUrl":null,"title_no_tag":"王毅同荷兰外交大臣卡格通电话","displayTemplateId":7,"documentId":"9136781","time":"2021-08-24 22:14:00","source":"","title":"王毅同荷兰外交大臣卡格通电话","url":"https://www.mfa.gov.cn/web/wjbzhd/202108/t20210824_9137788.shtml","content":"双方重点就<em>阿富汗</em>局势交换了意见。\n　　王毅表示，<em>阿富汗</em>的未来面临诸多挑战。民族、教派等矛盾错综复杂，贫困、难民等问题亟待解决，局部冲突引发内战的风险需要避免。"},{"imgUrl":null,"title_no_tag":"王毅同土耳其外长查武什奥卢通电话","displayTemplateId":7,"documentId":"9136768","time":"2021-08-19 01:21:00","source":"","title":"王毅同土耳其外长查武什奥卢通电话","url":"https://www.mfa.gov.cn/web/wjbzhd/202108/t20210819_9137775.shtml","content":"双方重点就<em>阿富汗</em>局势交换了意见。\n　　王毅表示，<em>阿富汗</em>局势一夜突变，下一步何去何从，取决于阿塔的政策走向。塔利班领导人表示要解决人民面临的问题，满足人民的愿望，对外释放了积极信号。"},{"imgUrl":null,"title_no_tag":"王毅：塔利班有必要履行对外作出的承诺","displayTemplateId":7,"documentId":"9660703","time":"2021-09-08 19:12:00","source":"","title":"王毅：塔利班有必要履行对外作出的承诺","url":"https://www.mfa.gov.cn/web/wjbzhd/202109/t20210908_9604937.shtml","content":"　　2021年9月8日，国务委员兼外长王毅在北京以视频方式出席<em>阿富汗</em>邻国外长会。\n　　"},{"imgUrl":null,"title_no_tag":"杨洁篪出席第十一次金砖国家安全事务高级代表视频会议","displayTemplateId":14,"documentId":"9183559","time":"2021-08-25 00:43:00","source":"","title":"杨洁篪出席第十一次金砖国家安全事务高级代表视频会议","url":"https://www.mfa.gov.cn/web/ziliao_674904/zt_674979/dnzt_674981/qtzt/kjgzbdfyyq_699171/202108/t20210825_9184569.shtml","content":"杨洁篪强调，政治解决是<em>阿富汗</em>问题的唯一出路。国际社会应尊重阿人民的意愿和选择，鼓励阿建立符合自身国情、广泛包容的政治架构。"}],"box":[],"listAndBox":[{"type":"DATA","data":{"imgUrl":null,"title_no_tag":"王毅同美国国务卿布林肯通电话","displayTemplateId":14,"documentId":"9183572","time":"2021-08-29 22:53:00","source":"","title":"王毅同美国国务卿布林肯通电话","url":"https://www.mfa.gov.cn/web/ziliao_674904/zt_674979/dnzt_674981/qtzt/kjgzbdfyyq_699171/202108/t20210829_9184582.shtml","content":"　　2021年8月29日，国务委员兼外长王毅应约同美国国务卿布林肯通电话，就<em>阿富汗</em>局势及中美关系等交换意见。\n　　"}},{"type":"DATA","data":{"imgUrl":null,"title_no_tag":"王毅同法国总统外事顾问博纳通电话","displayTemplateId":7,"documentId":"9136787","time":"2021-09-01 22:31:00","source":"","title":"王毅同法国总统外事顾问博纳通电话","url":"https://www.mfa.gov.cn/web/wjbzhd/202109/t20210901_9137794.shtml","content":"双方还就<em>阿富汗</em>形势交换了意见。"}},{"type":"DATA","data":{"imgUrl":null,"title_no_tag":"外交部亚洲司司长刘劲松会见埃及驻华大使巴德里","displayTemplateId":6,"documentId":"9605717","time":"2021-09-10 14:18:00","source":"","title":"外交部亚洲司司长刘劲松会见埃及驻华大使巴德里","url":"http://www.fmprc.gov.cn/wjbxw_673019/202109/t20210910_9605717.shtml","content":"　　2021年9月10日，外交部亚洲司司长刘劲松应约会见埃及驻华大使穆罕默德·巴德里，就<em>阿富汗</em>问题全面、深入交换了意见。刘劲松阐述了中方对阿政策，重点介绍了日前成功举办的首次<em>阿富汗</em>邻国外长会情况。"}},{"type":"DATA","data":{"imgUrl":null,"title_no_tag":"2021年9月8日外交部发言人汪文斌主持例行记者会","displayTemplateId":8,"documentId":"9660592","time":"2021-09-08 17:56:00","source":"","title":"2021年9月8日外交部发言人汪文斌主持例行记者会","url":"http://www.mfa.gov.cn/web/fyrbt_673021/jzhsl_673025/202109/t20210908_9604838.shtml","content":"我们尊重<em>阿富汗</em>主权独立和领土完整，不干涉<em>阿富汗</em>内政，支持<em>阿富汗</em>人民自主选择符合本国国情的发展道路，希望<em>阿富汗</em>能构建广泛包容的政治架构，奉行温和稳健的内外政策，坚决打击各类恐怖势力，同各国特别是周边国家友好相处"}},{"type":"DATA","data":{"imgUrl":null,"title_no_tag":"2021年9月13日外交部发言人赵立坚主持例行记者会","displayTemplateId":8,"documentId":"9660595","time":"2021-09-13 19:51:00","source":"","title":"2021年9月13日外交部发言人赵立坚主持例行记者会","url":"http://www.mfa.gov.cn/web/fyrbt_673021/jzhsl_673025/202109/t20210913_9604841.shtml","content":"中方愿同各国一道深化反恐合作，防止<em>阿富汗</em>成为恐怖势力的滋生地和庇护所，共同维护地区和平稳定。\n　　美国和北约从<em>阿富汗</em>不负责任撤军可能使恐怖主义滋生、蔓延，给<em>阿富汗</em>和地区安全稳定带来严重挑战。\n　　"}},{"type":"DATA","data":{"imgUrl":null,"title_no_tag":"2021年9月15日外交部发言人赵立坚主持例行记者会","displayTemplateId":8,"documentId":"9660597","time":"2021-09-15 18:37:00","source":"","title":"2021年9月15日外交部发言人赵立坚主持例行记者会","url":"http://www.mfa.gov.cn/web/fyrbt_673021/jzhsl_673025/202109/t20210915_9604843.shtml","content":"《环球时报》记者：据报道，近20年来，美国在叙利亚、伊拉克、<em>阿富汗</em>等多国发动空袭超过9万次，在空袭中丧生的平民最高或达4.8万名。中方对此有何评论？\n　　"}},{"type":"DATA","data":{"imgUrl":null,"title_no_tag":"王毅同荷兰外交大臣卡格通电话","displayTemplateId":7,"documentId":"9136781","time":"2021-08-24 22:14:00","source":"","title":"王毅同荷兰外交大臣卡格通电话","url":"https://www.mfa.gov.cn/web/wjbzhd/202108/t20210824_9137788.shtml","content":"双方重点就<em>阿富汗</em>局势交换了意见。\n　　王毅表示，<em>阿富汗</em>的未来面临诸多挑战。民族、教派等矛盾错综复杂，贫困、难民等问题亟待解决，局部冲突引发内战的风险需要避免。"}},{"type":"DATA","data":{"imgUrl":null,"title_no_tag":"王毅同土耳其外长查武什奥卢通电话","displayTemplateId":7,"documentId":"9136768","time":"2021-08-19 01:21:00","source":"","title":"王毅同土耳其外长查武什奥卢通电话","url":"https://www.mfa.gov.cn/web/wjbzhd/202108/t20210819_9137775.shtml","content":"双方重点就<em>阿富汗</em>局势交换了意见。\n　　王毅表示，<em>阿富汗</em>局势一夜突变，下一步何去何从，取决于阿塔的政策走向。塔利班领导人表示要解决人民面临的问题，满足人民的愿望，对外释放了积极信号。"}},{"type":"DATA","data":{"imgUrl":null,"title_no_tag":"王毅：塔利班有必要履行对外作出的承诺","displayTemplateId":7,"documentId":"9660703","time":"2021-09-08 19:12:00","source":"","title":"王毅：塔利班有必要履行对外作出的承诺","url":"https://www.mfa.gov.cn/web/wjbzhd/202109/t20210908_9604937.shtml","content":"　　2021年9月8日，国务委员兼外长王毅在北京以视频方式出席<em>阿富汗</em>邻国外长会。\n　　"}},{"type":"DATA","data":{"imgUrl":null,"title_no_tag":"杨洁篪出席第十一次金砖国家安全事务高级代表视频会议","displayTemplateId":14,"documentId":"9183559","time":"2021-08-25 00:43:00","source":"","title":"杨洁篪出席第十一次金砖国家安全事务高级代表视频会议","url":"https://www.mfa.gov.cn/web/ziliao_674904/zt_674979/dnzt_674981/qtzt/kjgzbdfyyq_699171/202108/t20210825_9184569.shtml","content":"杨洁篪强调，政治解决是<em>阿富汗</em>问题的唯一出路。国际社会应尊重阿人民的意愿和选择，鼓励阿建立符合自身国情、广泛包容的政治架构。"}}]},"left":null,"right":{"box":[]},"searchInfo":{"searchWord":null,"searchTerms":null,"hitWord":null,"wordId":null,"wordIndexName":null},"pager":{"pageNo":4,"pageSize":10,"pageCount":9,"total":88},"spendTime":0.032},"code":200}