{"success":true,"msg":"操作成功","data":{"middle":{"list":[{"imgUrl":null,"title_no_tag":"王毅国务委员兼外长在阿富汗邻国外长会上的讲话","displayTemplateId":11,"documentId":"9929281","time":"2021-09-08 22:58:00","source":"","title":"王毅国务委员兼外长在<em>阿富汗</em>邻国外长会上的讲话","url":"https://www.mfa.gov.cn/web/ziliao_674904/zyjh_674906/202109/t20210908_9870793.shtml","content":"　　各位外长、各位朋友，\n　　很高兴和各位同事见面，共同出席首次<em>阿富汗</em>邻国外长会。当前<em>阿富汗</em>局势发生根本性变化。作为<em>阿富汗</em>的邻国，我们有必要及时交换看法、协调立场。\n　　"},{"imgUrl":null,"title_no_tag":"王毅出席首次阿富汗邻国外长会","displayTemplateId":7,"documentId":"9660705","time":"2021-09-08 19:21:00","source":"","title":"王毅出席首次<em>阿富汗</em>邻国外长会","url":"https://www.mfa.gov.cn/web/wjbzhd/202109/t20210908_9604939.shtml","content":"　　2021年9月8日，国务委员兼外长王毅在北京以视频方式出席首次<em>阿富汗</em>邻国外长会。\n　　王毅表示，今天的<em>阿富汗</em>站在历史的十字路口。"},{"imgUrl":null,"title_no_tag":"王毅：阿富汗邻国要抓住关键窗口期，施加正面、积极影响","displayTemplateId":7,"documentId":"9660701","time":"2021-09-08 19:07:00","source":"","title":"王毅：<em>阿富汗</em>邻国要抓住关键窗口期，施加正面、积极影响","url":"https://www.mfa.gov.cn/web/wjbzhd/202109/t20210908_9604935.shtml","content":"　　2021年9月8日，国务委员兼外长王毅在北京以视频方式出席<em>阿富汗</em>邻国外长会。\n　　王毅表示，作为邻国，我们见证了数十年战乱给<em>阿富汗</em>人民造成的严重后果，也直接经受了阿长期乱局外溢带来的负面困扰。"},{"imgUrl":null,"title_no_tag":"王毅：今天的阿富汗站在历史的十字路口","displayTemplateId":7,"documentId":"9660700","time":"2021-09-08 19:05:00","source":"","title":"王毅：今天的<em>阿富汗</em>站在历史的十字路口","url":"https://www.mfa.gov.cn/web/wjbzhd/202109/t20210908_9604934.shtml","content":"　　2021年9月8日，国务委员兼外长王毅在北京以视频方式出席<em>阿富汗</em>邻国外长会。\n　　王毅表示，今天的<em>阿富汗</em>站在历史的十字路口。"},{"imgUrl":null,"title_no_tag":"王毅国务委员兼外长在阿富汗邻国外长会上的讲话","displayTemplateId":7,"documentId":"9660706","time":"2021-09-08 22:58:00","source":"","title":"王毅国务委员兼外长在<em>阿富汗</em>邻国外长会上的讲话","url":"https://www.mfa.gov.cn/web/wjbzhd/202109/t20210908_9604940.shtml","content":"　　各位外长、各位朋友，\n　　很高兴和各位同事见面，共同出席首次<em>阿富汗</em>邻国外长会。当前<em>阿富汗</em>局势发生根本性变化。作为<em>阿富汗</em>的邻国，我们有必要及时交换看法、协调立场。\n　　"},{"imgUrl":null,"title_no_tag":"王毅：阿富汗近邻国家应深化反恐和禁毒合作","displayTemplateId":7,"documentId":"9660704","time":"2021-09-08 19:13:00","source":"","title":"王毅：<em>阿富汗</em>近邻国家应深化反恐和禁毒合作","url":"https://www.mfa.gov.cn/web/wjbzhd/202109/t20210908_9604938.shtml","content":"　　2021年9月8日，国务委员兼外长王毅在北京以视频方式出席<em>阿富汗</em>邻国外长会。\n　　王毅表示，<em>阿富汗</em>局势变化给国际和地区反恐形势带来复杂影响，一些在阿的国际恐怖分子正在策划向邻国流窜渗透。"},{"imgUrl":null,"title_no_tag":"王毅：美国如果不能彻底改弦更张，&lt;br&gt;就势必从在阿富汗的失败走向更大的失败","displayTemplateId":7,"documentId":"9136795","time":"2021-09-04 16:47:00","source":"","title":"王毅：美国如果不能彻底改弦更张，&lt;br&gt;就势必从在<em>阿富汗</em>的失败走向更大的失败","url":"https://www.mfa.gov.cn/web/wjbzhd/202109/t20210904_9137801.shtml","content":"　　2021年9月3日，国务委员兼外长王毅同伊朗新任外长阿卜杜拉希扬通电话时就<em>阿富汗</em>局势交换了意见。\n　　王毅表示，<em>阿富汗</em>塔利班可能于近日宣布组建新政府。"},{"imgUrl":null,"title_no_tag":"王毅：中俄应在阿富汗问题上加强战略沟通","displayTemplateId":7,"documentId":"9136755","time":"2021-08-17 07:46:00","source":"","title":"王毅：中俄应在<em>阿富汗</em>问题上加强战略沟通","url":"https://www.mfa.gov.cn/web/wjbzhd/202108/t20210817_9137762.shtml","content":"王毅表示，<em>阿富汗</em>局势出现剧变，前政权不战而垮，塔利班宣布取得胜利。国际舆论普遍认为，这一结局有其内在逻辑和必然性，标志着军事干预、强权政治不得人心，终将失败。\n　　"},{"imgUrl":null,"title_no_tag":"外交部副部长乐玉成会见俄罗斯驻华大使杰尼索夫","displayTemplateId":14,"documentId":"10470731","time":"2021-09-15 14:10:00","source":"","title":"外交部副部长乐玉成会见俄罗斯驻华大使杰尼索夫","url":"https://www.mfa.gov.cn/web/ziliao_674904/zt_674979/dnzt_674981/qtzt/kjgzbdfyyq_699171/202109/t20210915_10403294.shtml","content":"<em>阿富汗</em>局势发生重大变化以来，中俄一直保持密切沟通，双方立场高度一致。两国元首上个月通话时就<em>阿富汗</em>问题深入交换意见，达成新的重要共识。"},{"imgUrl":null,"title_no_tag":"驻拉脱维亚大使梁建全就中拉关系、新冠病毒溯源等热点问题接受拉脱维亚《独立早报》书面采访","displayTemplateId":9,"documentId":"9139502","time":"2021-09-03 00:00:00","source":"","title":"驻拉脱维亚大使梁建全就中拉关系、新冠病毒溯源等热点问题接受拉脱维亚《独立早报》书面采访","url":"http://www.fmprc.gov.cn/dszlsjt_673036/202109/t20210903_9140508.shtml","content":"四、请问中国领导层如何看待<em>阿富汗</em>8月份发生的变化？\n　　答：最近<em>阿富汗</em>局势发生的重大变化表明，外部强加的治理模式并未得到阿人民支持，缺乏社会根基，依靠军事干预解决地区热点问题更没有出路。\n　　"}],"box":[],"listAndBox":[{"type":"DATA","data":{"imgUrl":null,"title_no_tag":"王毅国务委员兼外长在阿富汗邻国外长会上的讲话","displayTemplateId":11,"documentId":"9929281","time":"2021-09-08 22:58:00","source":"","title":"王毅国务委员兼外长在<em>阿富汗</em>邻国外长会上的讲话","url":"https://www.mfa.gov.cn/web/ziliao_674904/zyjh_674906/202109/t20210908_9870793.shtml","content":"　　各位外长、各位朋友，\n　　很高兴和各位同事见面，共同出席首次<em>阿富汗</em>邻国外长会。当前<em>阿富汗</em>局势发生根本性变化。作为<em>阿富汗</em>的邻国，我们有必要及时交换看法、协调立场。\n　　"}},{"type":"DATA","data":{"imgUrl":null,"title_no_tag":"王毅出席首次阿富汗邻国外长会","displayTemplateId":7,"documentId":"9660705","time":"2021-09-08 19:21:00","source":"","title":"王毅出席首次<em>阿富汗</em>邻国外长会","url":"https://www.mfa.gov.cn/web/wjbzhd/202109/t20210908_9604939.shtml","content":"　　2021年9月8日，国务委员兼外长王毅在北京以视频方式出席首次<em>阿富汗</em>邻国外长会。\n　　王毅表示，今天的<em>阿富汗</em>站在历史的十字路口。"}},{"type":"DATA","data":{"imgUrl":null,"title_no_tag":"王毅：阿富汗邻国要抓住关键窗口期，施加正面、积极影响","displayTemplateId":7,"documentId":"9660701","time":"2021-09-08 19:07:00","source":"","title":"王毅：<em>阿富汗</em>邻国要抓住关键窗口期，施加正面、积极影响","url":"https://www.mfa.gov.cn/web/wjbzhd/202109/t20210908_9604935.shtml","content":"　　2021年9月8日，国务委员兼外长王毅在北京以视频方式出席<em>阿富汗</em>邻国外长会。\n　　王毅表示，作为邻国，我们见证了数十年战乱给<em>阿富汗</em>人民造成的严重后果，也直接经受了阿长期乱局外溢带来的负面困扰。"}},{"type":"DATA","data":{"imgUrl":null,"title_no_tag":"王毅：今天的阿富汗站在历史的十字路口","displayTemplateId":7,"documentId":"9660700","time":"2021-09-08 19:05:00","source":"","title":"王毅：今天的<em>阿富汗</em>站在历史的十字路口","url":"https://www.mfa.gov.cn/web/wjbzhd/202109/t20210908_9604934.shtml","content":"　　2021年9月8日，国务委员兼外长王毅在北京以视频方式出席<em>阿富汗</em>邻国外长会。\n　　王毅表示，今天的<em>阿富汗</em>站在历史的十字路口。"}},{"type":"DATA","data":{"imgUrl":null,"title_no_tag":"王毅国务委员兼外长在阿富汗邻国外长会上的讲话","displayTemplateId":7,"documentId":"9660706","time":"2021-09-08 22:58:00","source":"","title":"王毅国务委员兼外长在<em>阿富汗</em>邻国外长会上的讲话","url":"https://www.mfa.gov.cn/web/wjbzhd/202109/t20210908_9604940.shtml","content":"　　各位外长、各位朋友，\n　　很高兴和各位同事见面，共同出席首次<em>阿富汗</em>邻国外长会。当前<em>阿富汗</em>局势发生根本性变化。作为<em>阿富汗</em>的邻国，我们有必要及时交换看法、协调立场。\n　　"}},{"type":"DATA","data":{"imgUrl":null,"title_no_tag":"王毅：阿富汗近邻国家应深化反恐和禁毒合作","displayTemplateId":7,"documentId":"9660704","time":"2021-09-08 19:13:00","source":"","title":"王毅：<em>阿富汗</em>近邻国家应深化反恐和禁毒合作","url":"https://www.mfa.gov.cn/web/wjbzhd/202109/t20210908_9604938.shtml","content":"　　2021年9月8日，国务委员兼外长王毅在北京以视频方式出席<em>阿富汗</em>邻国外长会。\n　　王毅表示，<em>阿富汗</em>局势变化给国际和地区反恐形势带来复杂影响，一些在阿的国际恐怖分子正在策划向邻国流窜渗透。"}},{"type":"DATA","data":{"imgUrl":null,"title_no_tag":"王毅：美国如果不能彻底改弦更张，&lt;br&gt;就势必从在阿富汗的失败走向更大的失败","displayTemplateId":7,"documentId":"9136795","time":"2021-09-04 16:47:00","source":"","title":"王毅：美国如果不能彻底改弦更张，&lt;br&gt;就势必从在<em>阿富汗</em>的失败走向更大的失败","url":"https://www.mfa.gov.cn/web/wjbzhd/202109/t20210904_9137801.shtml","content":"　　2021年9月3日，国务委员兼外长王毅同伊朗新任外长阿卜杜拉希扬通电话时就<em>阿富汗</em>局势交换了意见。\n　　王毅表示，<em>阿富汗</em>塔利班可能于近日宣布组建新政府。"}},{"type":"DATA","data":{"imgUrl":null,"title_no_tag":"王毅：中俄应在阿富汗问题上加强战略沟通","displayTemplateId":7,"documentId":"9136755","time":"2021-08-17 07:46:00","source":"","title":"王毅：中俄应在<em>阿富汗</em>问题上加强战略沟通","url":"https://www.mfa.gov.cn/web/wjbzhd/202108/t20210817_9137762.shtml","content":"王毅表示，<em>阿富汗</em>局势出现剧变，前政权不战而垮，塔利班宣布取得胜利。国际舆论普遍认为，这一结局有其内在逻辑和必然性，标志着军事干预、强权政治不得人心，终将失败。\n　　"}},{"type":"DATA","data":{"imgUrl":null,"title_no_tag":"外交部副部长乐玉成会见俄罗斯驻华大使杰尼索夫","displayTemplateId":14,"documentId":"10470731","time":"2021-09-15 14:10:00","source":"","title":"外交部副部长乐玉成会见俄罗斯驻华大使杰尼索夫","url":"https://www.mfa.gov.cn/web/ziliao_674904/zt_674979/dnzt_674981/qtzt/kjgzbdfyyq_699171/202109/t20210915_10403294.shtml","content":"<em>阿富汗</em>局势发生重大变化以来，中俄一直保持密切沟通，双方立场高度一致。两国元首上个月通话时就<em>阿富汗</em>问题深入交换意见，达成新的重要共识。"}},{"type":"DATA","data":{"imgUrl":null,"title_no_tag":"驻拉脱维亚大使梁建全就中拉关系、新冠病毒溯源等热点问题接受拉脱维亚《独立早报》书面采访","displayTemplateId":9,"documentId":"9139502","time":"2021-09-03 00:00:00","source":"","title":"驻拉脱维亚大使梁建全就中拉关系、新冠病毒溯源等热点问题接受拉脱维亚《独立早报》书面采访","url":"http://www.fmprc.gov.cn/dszlsjt_673036/202109/t20210903_9140508.shtml","content":"四、请问中国领导层如何看待<em>阿富汗</em>8月份发生的变化？\n　　答：最近<em>阿富汗</em>局势发生的重大变化表明，外部强加的治理模式并未得到阿人民支持，缺乏社会根基，依靠军事干预解决地区热点问题更没有出路。\n　　"}}]},"left":null,"right":{"box":[]},"searchInfo":{"searchWord":null,"searchTerms":null,"hitWord":null,"wordId":null,"wordIndexName":null},"pager":{"pageNo":2,"pageSize":10,"pageCount":9,"total":88},"spendTime":0.015},"code":200}